"Id","SalePrice"
1461,112491.552436885
1462,147995.726799786
1463,185355.292491299
1464,197808.086855559
1465,208340.038193727
1466,171379.195807133
1467,180518.770464392
1468,159510.2954183
1469,205640.245998823
1470,114004.831080208
1471,160934.342633764
1472,94907.6699781498
1473,94288.3560963118
1474,146886.442139551
1475,104991.748841763
1476,375696.802857272
1477,258020.69739836
1478,284722.125582203
1479,299851.284315389
1480,465492.054611788
1481,312765.127658327
1482,209253.409069268
1483,176532.016780208
1484,161420.471855859
1485,180916.298235865
1486,186919.695384058
1487,345714.247197628
1488,225225.403753027
1489,203465.717144619
1490,263220.775053999
1491,199944.391466846
1492,97228.1996158094
1493,197080.757560277
1494,317883.15661204
1495,290428.214612265
1496,249753.144065165
1497,177395.904549619
1498,176383.898891222
1499,166040.994685837
1500,149592.133171592
1501,186150.242823539
1502,133148.093621237
1503,348370.306540931
1504,237466.665367065
1505,228847.176055626
1506,190200.784689912
1507,261416.822701717
1508,195623.050819125
1509,157438.920501497
1510,142761.51693761
1511,158789.799298666
1512,186800.3381781
1513,155023.819674036
1514,169135.664776233
1515,212819.764241029
1516,161489.647551118
1517,180247.667331228
1518,118999.201723841
1519,212827.025393344
1520,126632.056106859
1521,134253.423303401
1522,188140.027171164
1523,112842.047803318
1524,122056.019879257
1525,121161.673813518
1526,110646.843871344
1527,104333.530459312
1528,131510.576936467
1529,154727.475166494
1530,212176.555616574
1531,119120.434964913
1532,97639.4684522547
1533,151260.098651149
1534,126811.644612049
1535,154836.430252765
1536,93158.9528915043
1537,46212.7083909841
1538,151119.03270072
1539,209052.085108936
1540,121622.031453642
1541,131798.546428542
1542,158505.951752717
1543,189364.005284463
1544,87087.0938308021
1545,119488.460003053
1546,139281.822131782
1547,137574.065594212
1548,153004.418598696
1549,127279.178606127
1550,143791.742811006
1551,103173.925171226
1552,158808.683372049
1553,152126.693732911
1554,117719.833364961
1555,157265.582655628
1556,59526.5093053968
1557,132757.572137525
1558,95045.7359627681
1559,58967.5866333315
1560,129528.56208953
1561,147318.754022872
1562,127311.265901973
1563,126246.017286004
1564,158196.316876046
1565,156146.930941809
1566,224678.320168628
1567,68455.1748683795
1568,222400.002381065
1569,129530.000178686
1570,133857.325512834
1571,88630.2833521438
1572,145848.662886045
1573,261244.83161343
1574,133956.918016982
1575,231646.477525755
1576,229099.906063008
1577,182974.007399669
1578,155349.465017051
1579,144071.379455174
1580,191119.293493751
1581,143140.48734879
1582,135524.405028869
1583,267370.737752365
1584,225262.871784309
1585,135251.610932586
1586,71143.131648606
1587,112438.280010428
1588,154065.488048043
1589,109474.90123981
1590,124994.93193706
1591,84966.6524564736
1592,131261.232047926
1593,128598.824888819
1594,148695.597624288
1595,112492.022172654
1596,225495.596906299
1597,206710.588632332
1598,210140.958924681
1599,182091.615496359
1600,163179.131622516
1601,64770.8900377511
1602,123128.730944384
1603,51264.4177549119
1604,270322.909501184
1605,225507.986172484
1606,157857.530306845
1607,162324.499415198
1608,204266.829823778
1609,188935.615948686
1610,149233.396425985
1611,123108.494133242
1612,186236.299264746
1613,165697.062603196
1614,136654.565125055
1615,89707.7548741112
1616,66669.0075384943
1617,84467.9830363912
1618,137502.486736143
1619,144075.813161971
1620,176432.252369107
1621,127088.607232012
1622,151996.563849136
1623,256075.79101817
1624,203075.828366006
1625,109076.212800123
1626,166635.371823843
1627,189679.544755498
1628,270948.182436121
1629,176422.553248271
1630,358210.075061077
1631,245117.438037345
1632,239875.663941079
1633,174261.047302605
1634,183093.859226916
1635,170175.102844761
1636,146831.502130722
1637,198208.371682943
1638,177646.805447935
1639,185463.152511618
1640,235548.554274547
1641,185905.383822278
1642,255093.125337013
1643,218423.970910605
1644,240903.816717186
1645,194396.847355501
1646,159498.936945117
1647,158974.269092819
1648,124659.815288026
1649,126144.314873871
1650,119551.020573784
1651,117141.381934632
1652,96193.2293689028
1653,93349.9554859656
1654,143800.428761491
1655,120782.32708957
1656,141470.130390089
1657,154134.531148549
1658,147826.947578856
1659,124672.14715449
1660,145088.362553503
1661,396634.361148583
1662,391167.341829549
1663,382934.240445706
1664,464034.564133053
1665,333639.077420579
1666,321803.954221553
1667,389656.098686928
1668,365357.611609701
1669,324853.945199207
1670,359546.947685957
1671,271048.596296415
1672,402462.54572968
1673,292507.448707121
1674,247373.297659264
1675,207778.304570131
1676,209629.73151773
1677,221158.377917807
1678,459585.113534081
1679,386870.379432404
1680,337604.227620607
1681,279485.1130805
1682,321338.104348554
1683,196591.103402749
1684,167205.603174834
1685,173125.766864051
1686,163434.585187409
1687,163734.849096428
1688,177190.061267427
1689,187881.033644004
1690,190026.75893271
1691,178441.971718689
1692,249938.346999803
1693,163981.901004904
1694,181019.524190171
1695,168429.592912911
1696,258183.517063345
1697,177558.606379029
1698,337650.788483917
1699,325813.499382621
1700,277644.149649573
1701,280683.910654188
1702,205172.633705238
1703,201544.489832051
1704,269994.909553231
1705,248410.466871124
1706,394681.160003354
1707,232251.20181761
1708,205269.764069929
1709,249791.741519508
1710,222849.920668903
1711,273068.765972899
1712,255058.347366207
1713,287434.990744389
1714,227426.447670989
1715,209384.806759626
1716,182503.487669594
1717,169421.193157931
1718,142116.933429945
1719,218664.164612666
1720,245376.361716365
1721,146728.092920011
1722,109216.657847621
1723,148386.231901662
1724,212001.907968436
1725,244597.360714619
1726,182600.271520071
1727,162682.7066442
1728,153563.688068835
1729,173131.049426154
1730,167169.214479703
1731,106649.365319753
1732,129103.864574175
1733,118284.868457478
1734,120389.832516051
1735,96383.0145374802
1736,94886.6082712483
1737,276536.186264119
1738,281802.134498361
1739,253471.988451417
1740,222313.370731097
1741,194811.265489919
1742,175012.797250723
1743,169758.143243227
1744,373129.712118191
1745,219025.938344848
1746,208465.721392714
1747,194192.101184292
1748,226493.691226457
1749,133067.414877873
1750,133563.764831019
1751,230842.142086178
1752,113079.884023464
1753,155439.57761052
1754,199318.608590152
1755,167581.813017951
1756,153765.622325064
1757,119465.958916252
1758,147331.311645565
1759,166420.050047725
1760,160956.229899953
1761,156055.541067783
1762,195040.014333927
1763,179573.047410903
1764,115384.415237315
1765,182804.186216038
1766,197536.960573895
1767,230845.243565501
1768,141752.094441806
1769,161249.101025835
1770,152038.759098178
1771,123734.342516247
1772,132624.52620962
1773,108282.717482751
1774,146764.543907808
1775,145170.31212534
1776,130098.616785232
1777,111754.488949235
1778,147983.763214995
1779,133296.720755854
1780,161909.69159177
1781,127056.638806192
1782,80796.6827210277
1783,135467.700697798
1784,94330.3003148621
1785,143505.224772625
1786,138537.734209544
1787,160853.175015357
1788,58920.7861139451
1789,101374.863286524
1790,61822.3423977433
1791,199135.008236369
1792,166292.426738787
1793,132701.729819825
1794,164935.380753336
1795,134111.656057993
1796,146770.077352525
1797,121575.257294386
1798,127384.599425102
1799,102933.247490349
1800,129197.545966323
1801,129252.189056868
1802,121009.003963399
1803,157326.515745279
1804,122846.102632182
1805,133599.208415644
1806,133332.471779197
1807,146181.853273988
1808,125297.39200071
1809,132185.375608936
1810,137818.24580055
1811,157431.139664378
1812,104432.904154853
1813,154887.903201767
1814,95547.9363118283
1815,47092.3642719635
1816,107231.762916795
1817,106291.659321397
1818,174582.130929717
1819,142639.279326428
1820,30660.1811842845
1821,116718.141518114
1822,147455.599740487
1823,23408.7429042049
1824,137882.590848638
1825,151189.862667341
1826,98949.0694488854
1827,105966.978899817
1828,150064.802318106
1829,131390.821398031
1830,153770.591443782
1831,153357.527367193
1832,12282.6810914934
1833,148657.363809715
1834,111414.675305287
1835,131951.823606411
1836,135908.125152727
1837,80451.5158358039
1838,124192.791371412
1839,111675.393247367
1840,156897.610635205
1841,124381.297509787
1842,87106.43051843
1843,140498.599805578
1844,145570.463605066
1845,155098.009812303
1846,153060.235647596
1847,167536.939763179
1848,37750.9927198944
1849,109253.420435352
1850,114109.532529279
1851,140261.114889248
1852,109149.879015487
1853,119162.714678869
1854,164945.008519484
1855,155299.057826287
1856,219149.558998659
1857,116208.40610868
1858,156566.629313909
1859,116789.306539064
1860,144638.977190286
1861,115721.512056207
1862,298388.37878822
1863,286663.818030769
1864,286685.278608048
1865,358053.668837239
1866,339154.883877024
1867,212655.506681215
1868,288101.76354058
1869,207761.701185914
1870,215773.779457404
1871,260247.210351629
1872,175243.853929639
1873,240867.297717749
1874,147742.304047287
1875,165941.966960245
1876,203624.129083954
1877,208098.973260382
1878,193225.174142029
1879,139119.357336054
1880,134930.838951096
1881,238085.026892587
1882,230920.999770214
1883,184245.331805132
1884,202812.544716561
1885,226250.774306334
1886,285791.932237593
1887,219609.432591507
1888,258733.465765947
1889,165749.327489416
1890,89913.4783136593
1891,98214.1368273965
1892,99022.231157587
1893,125934.015530033
1894,114790.124444447
1895,133116.853028864
1896,122103.854441928
1897,115617.156390195
1898,99774.8010866128
1899,168910.470428531
1900,159363.065893496
1901,199972.716430078
1902,178710.282609314
1903,225015.416974794
1904,162528.325548425
1905,203796.034055198
1906,160998.614786883
1907,219162.525376579
1908,112699.971487199
1909,129561.53823943
1910,117989.870085626
1911,233763.586854078
1912,329518.515466705
1913,162183.004642954
1914,40428.7316749062
1915,339436.187151928
1916,62680.4910919495
1917,212526.397080133
1918,137497.160314821
1919,151466.05877925
1920,159747.22830714
1921,377551.342208883
1922,326593.149058006
1923,232397.331908157
1924,225132.55784751
1925,208876.9769097
1926,368983.684967042
1927,124657.560667893
1928,171439.084928206
1929,121101.773221381
1930,122463.255428976
1931,124386.653234761
1932,120662.936699899
1933,216806.662589057
1934,188582.082062256
1935,161852.80486891
1936,205778.792033368
1937,176627.596901555
1938,163956.1817204
1939,269971.353036758
1940,205589.885480394
1941,165926.539489338
1942,161147.60905486
1943,240025.305297927
1944,388518.969196268
1945,416943.193722468
1946,134740.50698639
1947,327052.358839205
1948,170438.297521465
1949,243181.652249965
1950,188092.417667763
1951,242929.600470998
1952,202268.219376204
1953,173693.756042149
1954,184758.845652908
1955,134151.335694438
1956,300415.883887054
1957,162474.902414429
1958,253146.384374249
1959,134461.021692124
1960,93109.1658933383
1961,125023.797793102
1962,92830.2354676172
1963,105830.737988031
1964,105760.074228623
1965,132132.285430079
1966,140585.949270927
1967,312139.991701444
1968,419465.848604174
1969,392104.560001307
1970,398479.754861816
1971,406529.4776082
1972,355650.111249196
1973,291423.638342145
1974,345455.234951298
1975,480785.265901887
1976,278054.133300113
1977,361375.546995379
1978,339347.350439999
1979,315441.49812356
1980,219876.328846365
1981,348412.277467579
1982,218996.841687173
1983,202427.351666553
1984,171888.709049216
1985,228422.316478677
1986,206253.73533446
1987,208800.700197912
1988,171334.163470001
1989,184023.043368453
1990,204580.976875454
1991,234365.210871472
1992,220016.870857207
1993,163831.779701594
1994,227549.766043137
1995,177259.090446391
1996,282911.257824309
1997,316333.618591316
1998,321067.363003133
1999,317292.959441421
2000,326739.338718011
2001,312230.696647002
2002,247756.459760467
2003,235517.891387859
2004,281245.193583626
2005,231823.934634887
2006,221398.760911933
2007,245384.461484937
2008,228071.354035682
2009,209926.909300696
2010,193062.417673377
2011,121144.077086651
2012,178985.221264729
2013,179712.694656793
2014,181334.695938523
2015,216117.729306205
2016,193598.894972036
2017,195737.53475492
2018,99040.4526100258
2019,134618.354218129
2020,82029.1752704816
2021,96347.5108241626
2022,223930.672468716
2023,150411.787647131
2024,299875.640430578
2025,360906.753890948
2026,168558.274401458
2027,154836.186678417
2028,160520.523317299
2029,177371.486737434
2030,262197.313014762
2031,230815.013400311
2032,259603.427082579
2033,252321.109053829
2034,182358.303579525
2035,238230.408612425
2036,192733.360429433
2037,214333.712268558
2038,326043.60327571
2039,228327.130427849
2040,303015.289570483
2041,327570.890943579
2042,217605.330882436
2043,181438.456055128
2044,174218.442166186
2045,206710.904075919
2046,156372.375231185
2047,138765.372994202
2048,135392.230324158
2049,135382.50606254
2050,161825.684270791
2051,99358.0994702627
2052,115227.353977868
2053,142080.706744306
2054,77369.4091712758
2055,171878.727620915
2056,134277.502781492
2057,96501.0192555179
2058,212638.588303139
2059,126542.356959312
2060,180935.326997285
2061,170874.431621313
2062,123294.76572175
2063,112830.475846639
2064,135510.837765055
2065,91249.6987764331
2066,166688.285081264
2067,105666.911206097
2068,154282.914005452
2069,91322.8191631586
2070,114262.365992741
2071,97334.2415229575
2072,135553.79673318
2073,119567.55805994
2074,174551.506750574
2075,168778.063266258
2076,121531.62221251
2077,159615.720843881
2078,130416.495879956
2079,132160.129546719
2080,120205.806903441
2081,130291.991162493
2082,138837.304200151
2083,155924.305857067
2084,106010.212264617
2085,87406.2505974675
2086,110014.160013129
2087,112652.57816266
2088,102794.900205546
2089,71408.5795218558
2090,124498.601534468
2091,107176.233979072
2092,127134.787268585
2093,160473.284626823
2094,118974.092524227
2095,170205.85494714
2096,85298.8782668014
2097,91187.0212661153
2098,161577.419952641
2099,42530.5883837794
2100,49016.7243541355
2101,116151.304807382
2102,120972.474058442
2103,97949.5081918088
2104,118812.825103731
2105,133198.541668297
2106,43000.5972533892
2107,195494.269844645
2108,118376.455015586
2109,114410.469104236
2110,125553.182964412
2111,133568.798409682
2112,148431.290334496
2113,123954.366204456
2114,116907.36138479
2115,173968.51087177
2116,117524.755640068
2117,159761.684606765
2118,122312.01583372
2119,120635.303375367
2120,96316.8856861339
2121,97379.6464722098
2122,123912.374799966
2123,85360.8025995058
2124,172708.070055316
2125,122524.059835286
2126,158467.422376657
2127,171800.743926372
2128,134021.023956342
2129,56354.8934092257
2130,142440.222767992
2131,125854.272986577
2132,115312.124189587
2133,133369.875145496
2134,121885.696932536
2135,97415.3508079244
2136,73075.0683597867
2137,109364.446948396
2138,123834.733262789
2139,139099.506182876
2140,136113.950287414
2141,172520.379872696
2142,125703.252830457
2143,159332.319526689
2144,148271.094940787
2145,142751.605203698
2146,179340.539276557
2147,142611.154493473
2148,110146.046494663
2149,124324.897685326
2150,230542.260829598
2151,128564.985640096
2152,199282.349920013
2153,187066.76802021
2154,100364.995982399
2155,134781.629812812
2156,282353.780186876
2157,230252.55203628
2158,248037.384216964
2159,230385.192472247
2160,181030.744969974
2161,226704.084731126
2162,371664.467167258
2163,324222.654059836
2164,246084.496033982
2165,204125.207396348
2166,158677.866460054
2167,226090.202926393
2168,166560.667939201
2169,192406.087102112
2170,207555.764985684
2171,156068.469266134
2172,135840.926313764
2173,188150.349101876
2174,222533.122660487
2175,261476.723867363
2176,311572.456290155
2177,243653.175630974
2178,211329.329973641
2179,129906.080143185
2180,225778.087247472
2181,196193.868664566
2182,219009.712113912
2183,187996.099205792
2184,119417.84266817
2185,101892.248064434
2186,156999.776206248
2187,139921.712987896
2188,152953.403357942
2189,312498.14487192
2190,88830.2327762228
2191,58510.4701975078
2192,76419.6228255966
2193,123584.059052595
2194,89807.8698715996
2195,94230.0355303136
2196,103678.365016873
2197,107820.198866838
2198,160650.526192839
2199,179823.867481921
2200,155089.968294709
2201,155549.540805722
2202,211488.859598356
2203,150818.771493968
2204,195945.298354634
2205,130178.830220061
2206,160719.285849369
2207,239781.772311583
2208,258251.967794412
2209,268015.785272749
2210,123993.788573453
2211,125479.734539237
2212,123028.702046672
2213,104076.077773461
2214,148821.744229982
2215,99653.0812094192
2216,166956.874944559
2217,109109.333357677
2218,59457.2813758025
2219,52990.6426833858
2220,9402.69629330853
2221,339233.450615262
2222,301174.140125136
2223,275410.462547756
2224,202497.688131061
2225,111188.681647544
2226,189827.047979379
2227,189260.770858967
2228,279411.692464408
2229,250646.612886127
2230,160687.63357135
2231,216771.555415214
2232,185216.478852689
2233,184716.592107209
2234,246089.043341038
2235,230535.950078428
2236,251621.685128915
2237,299959.905232469
2238,195101.388429848
2239,103607.744434533
2240,149147.959869139
2241,134793.572676027
2242,125480.279907964
2243,125614.332879701
2244,100994.817380199
2245,119252.054192793
2246,136442.275703293
2247,125578.739438052
2248,129421.358306942
2249,114386.67222245
2250,125284.337146814
2251,95037.2812300637
2252,197830.337482059
2253,160628.466575366
2254,180800.788325637
2255,190866.776781608
2256,166067.756724012
2257,221920.089092248
2258,145263.318182108
2259,176397.166102774
2260,151708.506525344
2261,211577.099952946
2262,232934.673459174
2263,392964.360597872
2264,428337.804683304
2265,148601.181168049
2266,332375.451108048
2267,386005.602859692
2268,413902.522399172
2269,148898.306146129
2270,184758.562791517
2271,215628.049506372
2272,194657.450807902
2273,150986.443934006
2274,183892.097591051
2275,134595.363284498
2276,171494.554063856
2277,159648.300505823
2278,154031.468107732
2279,137992.70184937
2280,110756.230326905
2281,146678.154275084
2282,165126.879324553
2283,111664.677542764
2284,127562.022503239
2285,150439.356298055
2286,122094.502199922
2287,387756.532557043
2288,285623.273619504
2289,352433.73686388
2290,423416.141961215
2291,358205.718301372
2292,417758.905592781
2293,461611.28691593
2294,394472.864868755
2295,445647.323550922
2296,283167.695380091
2297,380763.892305391
2298,371709.590397876
2299,352514.430436918
2300,336912.335111185
2301,339491.280850072
2302,260083.274454348
2303,248382.833512559
2304,248536.016947014
2305,213592.017901631
2306,204955.290043762
2307,209999.312139024
2308,227694.853919198
2309,302853.543917552
2310,213734.648453136
2311,213794.778911578
2312,181969.618294636
2313,167424.331339067
2314,176510.992411079
2315,183141.360037896
2316,199122.52574571
2317,193687.182639565
2318,187111.397595
2319,190576.933352573
2320,183970.948286766
2321,234912.843034929
2322,202232.690744502
2323,201669.268039095
2324,173166.819435364
2325,209884.672070369
2326,171799.110389474
2327,197448.770432349
2328,215983.898607882
2329,188720.863865107
2330,180541.417508006
2331,336318.273379818
2332,394797.620546536
2333,330337.059801109
2334,280058.134002069
2335,303606.176593245
2336,323019.484247672
2337,201203.760796272
2338,253918.362655699
2339,213926.011838661
2340,375496.663173214
2341,210700.191184649
2342,228258.728072998
2343,225484.797742909
2344,216785.035524256
2345,214384.585537477
2346,214773.861183449
2347,208843.648229161
2348,250462.467037975
2349,209155.038468669
2350,317269.893793909
2351,279658.950348184
2352,246712.875349286
2353,253501.213433949
2354,157146.416009797
2355,145113.909278757
2356,142802.146947791
2357,189319.126860679
2358,205450.853049633
2359,121730.73733868
2360,106838.934367278
2361,151583.973512499
2362,256949.160390144
2363,130138.408691807
2364,142406.571847243
2365,204832.412730935
2366,193491.851336197
2367,216756.592498098
2368,223339.234717779
2369,214412.311716684
2370,170823.282453852
2371,165020.543410355
2372,186952.459494209
2373,284393.516525686
2374,312316.667368054
2375,244539.578620085
2376,283922.071107336
2377,333879.607653909
2378,148415.969245687
2379,219260.916517757
2380,118777.625554008
2381,172398.027333507
2382,207277.701217992
2383,195701.021125321
2384,238919.269054268
2385,153405.674395066
2386,131947.918604082
2387,128190.047761346
2388,104028.182446262
2389,111903.497787607
2390,153326.368230289
2391,153697.377431778
2392,110070.19909421
2393,170191.496735807
2394,146529.667195584
2395,217453.94294877
2396,136034.085320988
2397,216644.868322032
2398,129197.107712952
2399,69073.4609398157
2400,54832.1065384214
2401,143464.302425628
2402,134624.711907143
2403,143701.19708157
2404,150982.944631487
2405,150753.385597982
2406,144736.625982612
2407,127465.660287028
2408,123894.653547347
2409,109000.684843736
2410,179503.986040452
2411,113060.424961244
2412,159299.158889417
2413,119777.900441647
2414,191625.470534748
2415,132891.979731953
2416,129096.025487434
2417,140907.811782912
2418,141499.852935554
2419,126853.500785251
2420,127166.308299536
2421,144473.864421019
2422,100996.603038267
2423,118744.063048364
2424,139468.916315986
2425,218818.944799886
2426,133472.165000326
2427,134640.254185214
2428,188300.502217652
2429,99775.2367407514
2430,130049.480939897
2431,96839.0772948893
2432,151806.89317063
2433,155896.797206559
2434,139593.243172768
2435,171006.833650036
2436,110294.112473459
2437,68630.8919945891
2438,115578.374928972
2439,88257.9201739587
2440,121607.830211183
2441,99315.2776860909
2442,94998.2940897043
2443,141520.731513036
2444,133012.325741788
2445,81505.2665301249
2446,136670.546565647
2447,188884.775970238
2448,123886.069806808
2449,109631.546469703
2450,155486.965885382
2451,103818.926565616
2452,215129.824217501
2453,92317.0670648191
2454,117867.242183408
2455,124663.258864739
2456,149027.974970507
2457,157070.103672062
2458,142902.794314584
2459,118038.326308848
2460,143328.650429068
2461,126965.572669358
2462,140077.427736962
2463,123496.289889817
2464,196266.418815792
2465,142208.80782161
2466,108208.323165892
2467,118074.258928955
2468,90485.5923812029
2469,87878.4080751521
2470,225376.575805417
2471,243394.762591346
2472,188028.244243971
2473,130560.232314555
2474,81856.3959261748
2475,208506.536867936
2476,114979.958040728
2477,119406.737715145
2478,151749.584293279
2479,94585.8178529508
2480,159709.584796187
2481,119165.121628593
2482,112215.891811527
2483,100730.076053526
2484,121590.111143752
2485,127235.654798469
2486,155066.771719892
2487,188355.264210046
2488,160209.705178999
2489,156610.577693855
2490,133967.577123918
2491,90269.5429504487
2492,188597.013072448
2493,148416.923158769
2494,145123.335723317
2495,72663.1440564374
2496,220485.775918539
2497,158934.492159359
2498,111520.810896685
2499,80598.0663916427
2500,136477.714547816
2501,137859.071598296
2502,147256.157995686
2503,103767.773559913
2504,200467.190572123
2505,229138.789458386
2506,247727.689852561
2507,261271.388445795
2508,242815.893649894
2509,205684.001866082
2510,204992.02263452
2511,174614.798416955
2512,215640.887808585
2513,216499.698052081
2514,297673.127994983
2515,163749.408810283
2516,169890.151462135
2517,157305.194817915
2518,154388.334389625
2519,250785.162728323
2520,226554.913566372
2521,187209.211348292
2522,222839.836294396
2523,106130.101212581
2524,139791.348605779
2525,154946.079571848
2526,146593.521746112
2527,117827.682465742
2528,154943.134926394
2529,158651.409008405
2530,125406.144646312
2531,266303.210361266
2532,222419.474116102
2533,197626.450495021
2534,240358.05370743
2535,279279.465188252
2536,236528.612307262
2537,259430.156201444
2538,186049.822536592
2539,183251.714731474
2540,188951.842040347
2541,177753.283391521
2542,165942.337229328
2543,105591.751534287
2544,126638.16601602
2545,132415.276818365
2546,125633.305539929
2547,140908.499985312
2548,165109.76664401
2549,144695.865431638
2550,627306.876230944
2551,135346.310294161
2552,137123.23288803
2553,68116.2306920724
2554,79554.5844810412
2555,92683.0613647376
2556,92611.4159490944
2557,100710.45342682
2558,186794.481640966
2559,167911.862904049
2560,172957.864843175
2561,149778.207055789
2562,172306.078594298
2563,162717.943409222
2564,205277.158673491
2565,166531.081380806
2566,174450.351608056
2567,149164.460338227
2568,216300.07744221
2569,229862.693352044
2570,111203.078181675
2571,207695.250294882
2572,154166.670696803
2573,215900.916927659
2574,278911.24903918
2575,134613.889501453
2576,200026.602460087
2577,170543.822694771
2578,84716.0561373747
2579,30401.3784637577
2580,100774.436443034
2581,120285.439585948
2582,114370.129600664
2583,276354.069558202
2584,159616.067802493
2585,180737.950950009
2586,215911.332274319
2587,203483.86334968
2588,145729.370768805
2589,146340.21872613
2590,193014.760339859
2591,232613.959536103
2592,219543.732634388
2593,275928.58903406
2594,176929.020242241
2595,212839.860023062
2596,282073.698589684
2597,199806.099931545
2598,278679.370077536
2599,334812.078619758
2600,148202.207133131
2601,119685.310322599
2602,72113.4250397403
2603,90450.5266364335
2604,84362.6951079836
2605,69693.3689885673
2606,131515.939152611
2607,202870.246330007
2608,185861.997964819
2609,156374.339439737
2610,110530.349498826
2611,167469.211018539
2612,152712.553042073
2613,120115.288978801
2614,108838.096001884
2615,156024.702726531
2616,151460.664214822
2617,204617.968292554
2618,204685.321437136
2619,206953.581234479
2620,192332.739542763
2621,182069.234140584
2622,175867.647999848
2623,236909.868747107
2624,279302.028282382
2625,293540.613049011
2626,170255.089636072
2627,184546.562073836
2628,490634.46847978
2629,494144.335892209
2630,385617.336391138
2631,464400.714771978
2632,420280.098150708
2633,322694.982327663
2634,430633.542620044
2635,139297.583542784
2636,170051.584638935
2637,193132.271174789
2638,271019.732025002
2639,194630.750498811
2640,154820.880064553
2641,95053.2904286505
2642,169686.732706877
2643,105834.648563391
2644,110104.40635008
2645,108711.211516346
2646,90870.6390166129
2647,106643.43441717
2648,151466.081732294
2649,151514.71440275
2650,135253.159248817
2651,132438.387359118
2652,388424.970844645
2653,259281.852970092
2654,278440.145072453
2655,413314.35530646
2656,327038.069231974
2657,365462.251264829
2658,331621.522988909
2659,327476.494712746
2660,359309.729315259
2661,363921.209527351
2662,384544.082447072
2663,270193.575427226
2664,296865.507385268
2665,328356.347273387
2666,287631.049797114
2667,179651.506221808
2668,181683.842526413
2669,189913.649836871
2670,265558.599930403
2671,187771.125107967
2672,194740.212305648
2673,202155.003380506
2674,198393.912658651
2675,185201.906325041
2676,188683.953250068
2677,206571.823987483
2678,235702.379640087
2679,288792.112973692
2680,289028.646220965
2681,410042.567689728
2682,326256.531132302
2683,487397.444369361
2684,328693.195009821
2685,350836.959586535
2686,232259.185970501
2687,294408.850526848
2688,214695.909373497
2689,212002.122996598
2690,384400.732229483
2691,202628.982801072
2692,153451.690704562
2693,205105.762285119
2694,133993.932557675
2695,199223.912858766
2696,184370.379305326
2697,193010.106218913
2698,197094.338893347
2699,159152.787049195
2700,136062.979657969
2701,128150.151904326
2702,84880.9458035688
2703,101243.764513816
2704,143276.20658096
2705,104298.779656651
2706,77447.7348651728
2707,94707.2356224337
2708,139414.377384026
2709,113077.765559442
2710,135656.388680586
2711,270890.977328026
2712,421850.583918239
2713,164318.789554626
2714,144383.141850689
2715,174794.178739054
2716,129397.331007096
2717,196497.002852314
2718,207025.64264366
2719,147230.414606216
2720,171367.84977635
2721,123979.229204271
2722,152026.080627429
2723,134179.698382067
2724,119180.775457146
2725,123369.281871178
2726,145100.77002808
2727,185718.805082896
2728,175938.716821395
2729,146341.754979966
2730,149188.821468212
2731,129499.608943875
2732,143777.12103203
2733,161349.723140894
2734,126534.061963269
2735,138905.427841174
2736,137366.537799758
2737,124557.324698823
2738,125202.290819411
2739,144921.65745767
2740,134765.297071965
2741,149679.842098641
2742,144074.06008405
2743,162904.304758319
2744,168870.588543604
2745,141520.298354595
2746,138651.867690161
2747,150183.227279555
2748,114670.792193891
2749,131191.344188678
2750,105540.260048708
2751,133978.022156176
2752,191410.190881611
2753,161797.417350119
2754,234824.750876508
2755,135653.305881026
2756,94776.336140312
2757,58072.8615636798
2758,76027.9108342658
2759,189843.50876613
2760,131718.957645662
2761,138384.912462504
2762,133387.539976368
2763,177371.896798487
2764,137042.677793638
2765,270748.69236043
2766,131040.815426323
2767,82412.262313864
2768,126505.448662474
2769,145034.686390933
2770,138427.860771333
2771,100772.714355156
2772,107430.977472981
2773,164254.773182095
2774,153811.202616766
2775,126688.90313938
2776,136587.365054504
2777,156153.723566693
2778,117068.241409194
2779,140189.809523134
2780,97030.3227593924
2781,89106.3045531073
2782,91253.4758117099
2783,101643.219677942
2784,131118.063224955
2785,141407.868633229
2786,47251.1134542205
2787,121397.500123069
2788,66462.8736888115
2789,178539.45345741
2790,86389.3726735258
2791,107252.377809687
2792,61702.1255187937
2793,161886.858138844
2794,105107.169098722
2795,129982.77820539
2796,107457.945006879
2797,248242.002525261
2798,122320.189658114
2799,128626.662038413
2800,64066.3580447182
2801,114248.62323247
2802,128190.32522443
2803,175667.335540619
2804,126020.84405564
2805,104683.462984462
2806,73181.0326439643
2807,191470.676538206
2808,152407.136948694
2809,127369.617215698
2810,126435.921481619
2811,161732.633291347
2812,186522.611450428
2813,147864.62536113
2814,152159.947052972
2815,116835.407396115
2816,230914.217002762
2817,155854.111854402
2818,122274.926037935
2819,166685.03746094
2820,136217.432243938
2821,89504.6840191892
2822,169431.004139237
2823,339059.660103663
2824,178806.003029037
2825,156793.528064851
2826,135697.672038432
2827,133346.151922555
2828,245674.158792397
2829,202424.162511743
2830,222321.251548393
2831,182289.406495713
2832,252796.325129948
2833,317172.713294874
2834,234203.021555412
2835,228549.71830213
2836,191312.96571077
2837,151317.833529266
2838,149282.457877473
2839,141239.070513111
2840,208560.025958495
2841,200676.865773227
2842,223983.568112153
2843,150716.113436001
2844,179977.929972328
2845,127159.359699009
2846,206051.528186283
2847,222897.849875118
2848,217346.367208558
2849,193749.24280401
2850,268084.473112793
2851,213707.578096832
2852,226851.830088894
2853,231075.054844268
2854,136367.528256229
2855,204537.065141935
2856,201084.436896297
2857,191129.727332809
2858,210423.374163677
2859,68393.2358673796
2860,141960.901144701
2861,122848.382196776
2862,172633.973602816
2863,143702.692745841
2864,262507.836105846
2865,138591.550892498
2866,126592.720720899
2867,90631.2052881619
2868,92492.7542040198
2869,98200.0142330338
2870,96262.9327095032
2871,67000.523504411
2872,38585.3767575046
2873,71509.1060017868
2874,148126.367092924
2875,120588.828421777
2876,156827.727191872
2877,154425.717417716
2878,167362.339096611
2879,139327.635832134
2880,100665.058337965
2881,146549.116474541
2882,203404.391836164
2883,211778.511390335
2884,181432.605351402
2885,187464.881239682
2886,255123.092243419
2887,115458.737195092
2888,142153.858404647
2889,30950.5081684605
2890,78494.2726116
2891,154377.523790198
2892,6299.52367739778
2893,66266.2970409789
2894,4100.56504389225
2895,339496.566916421
2896,281381.93755096
2897,218195.568234404
2898,122735.942176649
2899,205268.624042848
2900,158823.794725564
2901,236964.254464132
2902,169460.114685693
2903,310784.979448713
2904,347917.364587249
2905,75075.0915858599
2906,189567.720721283
2907,100411.138975298
2908,109983.60954952
2909,120019.856562445
2910,69254.4143183875
2911,73242.234822264
2912,149914.667831362
2913,74026.8677259833
2914,67450.513021832
2915,78716.2859058932
2916,81745.3422336491
2917,179178.038758578
2918,98643.0485064748
2919,221636.887392718
