"Id","SalePrice"
1461,124277.816857492
1462,192926.3915293
1463,170094.702792455
1464,199886.780137298
1465,221599.574816731
1466,153163.15081264
1467,219165.582705217
1468,151850.683189475
1469,212184.572792385
1470,113552.782983202
1471,223775.536976687
1472,133694.878566727
1473,114681.43734432
1474,161667.034167032
1475,139648.726935258
1476,299844.348091774
1477,272038.074233241
1478,325536.319529214
1479,282392.433695177
1480,427271.743570965
1481,298931.691210441
1482,236384.195611337
1483,192043.522167802
1484,191359.794705954
1485,199398.095878433
1486,189262.451243019
1487,287385.362300866
1488,262415.721873381
1489,197908.590793627
1490,224331.080394427
1491,197133.090972983
1492,100866.238773556
1493,202421.786465409
1494,271057.118525494
1495,284854.46067218
1496,234783.146221612
1497,171203.82537271
1498,178284.049675584
1499,174853.115671399
1500,163822.654116605
1501,212185.817210273
1502,166870.963052516
1503,271964.242368208
1504,234368.040788107
1505,244561.5331802
1506,215849.677938672
1507,213868.672099191
1508,186440.111379269
1509,164292.532286024
1510,155847.462034975
1511,151601.229286753
1512,196302.743802276
1513,143076.894863572
1514,174799.129033714
1515,197762.727964262
1516,174767.607244298
1517,187980.68346415
1518,136659.969033627
1519,271467.949282465
1520,136730.017911199
1521,140032.80643786
1522,216194.363866641
1523,68506.5070723422
1524,115869.042227359
1525,124604.383936708
1526,112772.874910508
1527,88973.5585007923
1528,163577.724546372
1529,143119.220093645
1530,232884.148927621
1531,139175.721982275
1532,106688.737092164
1533,143154.855940323
1534,124325.28931946
1535,133761.804281258
1536,117062.252179606
1537,33812.8356087339
1538,223647.152817207
1539,252483.912202623
1540,88635.5733376133
1541,149233.678911145
1542,124787.539770251
1543,186827.82252918
1544,75907.982433164
1545,123105.577263124
1546,141048.92040687
1547,135592.065493047
1548,141543.317145805
1549,114356.245630938
1550,131695.089963818
1551,143510.119113847
1552,105135.852191949
1553,155081.318406392
1554,126467.926833421
1555,162967.772413365
1556,86082.6339595946
1557,125367.270750607
1558,115955.774846031
1559,71104.8986444824
1560,130873.782209116
1561,123209.754755638
1562,116734.15098015
1563,120382.316028081
1564,163942.332016685
1565,131688.297638062
1566,242453.78551269
1567,72914.2531044291
1568,216566.509995437
1569,79786.1082818953
1570,141651.563967147
1571,92457.0086340434
1572,150465.267876161
1573,241831.458789613
1574,119814.997179315
1575,232179.5734529
1576,241716.152083464
1577,202725.673320827
1578,168449.566900826
1579,155910.805619561
1580,191930.522091258
1581,146741.321171766
1582,132963.035352074
1583,319286.758609142
1584,205793.573491574
1585,175367.785526909
1586,29402.2095556488
1587,103983.315738183
1588,153541.787995795
1589,83929.0254965346
1590,155730.112184662
1591,59745.9183378136
1592,122660.587749993
1593,145363.486814508
1594,73689.43107062
1595,69194.0262616625
1596,203636.244697482
1597,163618.880141747
1598,206622.67989008
1599,217167.468856126
1600,201538.257102436
1601,11032.3131860262
1602,131865.587496838
1603,100974.936240354
1604,281835.026254808
1605,243199.681986362
1606,205007.383461365
1607,200066.319977817
1608,235711.317906466
1609,198205.023540616
1610,140796.546097402
1611,124463.367129216
1612,164829.774866026
1613,169299.353153935
1614,133601.478030871
1615,64411.4115264908
1616,41500.6644199446
1617,72460.3679525094
1618,123209.435380616
1619,146857.703336125
1620,124860.604572408
1621,134851.62574428
1622,143262.894796705
1623,272615.350292579
1624,197951.515001982
1625,131023.659320168
1626,218830.156735939
1627,193044.321208798
1628,274094.813190387
1629,193355.792308616
1630,297378.733543361
1631,237917.938601956
1632,253336.282373475
1633,190703.482780176
1634,174811.400726195
1635,165087.974232316
1636,164954.585727923
1637,161141.330194021
1638,212214.026217763
1639,210478.463570312
1640,256653.200894655
1641,209018.293249862
1642,208874.937378527
1643,209973.268950624
1644,226698.796745232
1645,224809.833775888
1646,188364.375107746
1647,197461.666061812
1648,115318.188591695
1649,141151.128988338
1650,120261.001483643
1651,111559.240008224
1652,127829.983542359
1653,123958.337031973
1654,145346.067459426
1655,168923.215074855
1656,146562.782110302
1657,147119.388196286
1658,149295.068990692
1659,164487.915559222
1660,159072.396933436
1661,368981.374419858
1662,300173.394502597
1663,361497.863123695
1664,401440.081644575
1665,316398.711107289
1666,310120.838270854
1667,316310.296736187
1668,335771.465323639
1669,308216.306922978
1670,343606.573992516
1671,281450.064496431
1672,378355.368968311
1673,254272.783710158
1674,283627.327199416
1675,218130.647540879
1676,200919.776381905
1677,243571.269027703
1678,400089.971681248
1679,344744.603494401
1680,320446.478189313
1681,282169.113516174
1682,311687.085330229
1683,208056.503058929
1684,185894.020500503
1685,159683.053565503
1686,193559.149438183
1687,183742.303532324
1688,198257.681409859
1689,196459.260361492
1690,202529.944493709
1691,197707.48876908
1692,251347.931497636
1693,189648.618712131
1694,177125.098369356
1695,174141.766040429
1696,268185.124543096
1697,182150.613138994
1698,297958.80614364
1699,312734.82317863
1700,234118.14310469
1701,258160.005865027
1702,280695.497976777
1703,281466.566189768
1704,302852.742067191
1705,270336.326614234
1706,343562.51043872
1707,213799.235871217
1708,220603.177910947
1709,293117.024425812
1710,238484.746402761
1711,260111.689547802
1712,270056.244180366
1713,270754.302461439
1714,244551.50902765
1715,195966.759061751
1716,211839.247159014
1717,206928.445727054
1718,147377.331175409
1719,191929.278019057
1720,287927.618455364
1721,208085.921985396
1722,127151.90349534
1723,175916.312623067
1724,225341.708663392
1725,215580.545234014
1726,166452.226002526
1727,158234.926774559
1728,176089.22107984
1729,170496.729599695
1730,151388.855116496
1731,115018.269025086
1732,132932.606266401
1733,117420.628317177
1734,128013.401421883
1735,130318.187456028
1736,107795.630144973
1737,324979.671639298
1738,250655.216255064
1739,214989.38258441
1740,206879.210383878
1741,201428.805811748
1742,182488.451664677
1743,198285.419040534
1744,324066.933901289
1745,213907.743595911
1746,227157.079006575
1747,217766.348667293
1748,202870.610961159
1749,168345.157109932
1750,171068.406180172
1751,259576.402662147
1752,112772.208667175
1753,147580.555371038
1754,227568.23990551
1755,210416.963635781
1756,104538.318902585
1757,117090.928532347
1758,149233.585276604
1759,176400.963276155
1760,168006.586733257
1761,167578.534546917
1762,134252.582773899
1763,204802.126625552
1764,93273.4349500555
1765,189856.724786348
1766,210514.971909707
1767,238604.84867992
1768,156332.170718468
1769,208255.630972811
1770,169049.761708768
1771,122938.374952944
1772,132509.899411475
1773,91302.9490644272
1774,175998.991844873
1775,156733.68936993
1776,139200.556150854
1777,107191.050795984
1778,129377.944925975
1779,112825.335379151
1780,187888.339700253
1781,130788.149578399
1782,34068.1392480395
1783,123399.873383684
1784,89303.9470666372
1785,122075.802974407
1786,111083.505785483
1787,202857.542310848
1788,10925.0026246708
1789,112132.428643471
1790,54974.6740905741
1791,198513.702381937
1792,196655.816622739
1793,160604.440066331
1794,171891.586115016
1795,159339.266373843
1796,128975.413345277
1797,159270.455978849
1798,104124.633994883
1799,107196.432542978
1800,121569.14504964
1801,83111.7300814184
1802,159431.7362374
1803,163354.077031277
1804,151150.205164709
1805,155288.657671301
1806,132238.715283367
1807,161825.254934346
1808,132570.762269477
1809,100626.119229646
1810,135131.659225949
1811,69242.8818989833
1812,92162.5524027138
1813,109215.429347828
1814,81128.8453656565
1815,5095.88086483356
1816,98302.8875522693
1817,90002.1356258056
1818,155415.040451824
1819,122253.240364173
1820,47438.3892618515
1821,131347.743620972
1822,169983.921814007
1823,39583.7145445369
1824,158155.090728499
1825,113949.60915252
1826,121576.629859109
1827,95041.8134365518
1828,117809.213429714
1829,153120.966595034
1830,149339.028860081
1831,188368.543459938
1832,66565.7694264945
1833,153857.27924371
1834,127885.936236478
1835,185023.185272919
1836,135294.547668545
1837,79068.3154274653
1838,142856.310738142
1839,61679.3297251359
1840,144389.700184621
1841,123335.864260459
1842,85618.7144918313
1843,137776.223591448
1844,161625.075583948
1845,120153.766113849
1846,178356.248828382
1847,184646.501918632
1848,4432.65565910288
1849,108394.371262862
1850,104341.294689048
1851,141415.230692793
1852,125082.302469665
1853,128359.589042199
1854,192351.93654963
1855,168882.634194281
1856,215788.883482965
1857,193670.270311084
1858,139134.552543458
1859,138758.316337168
1860,151978.023303307
1861,137722.236787039
1862,271111.730560548
1863,267952.061197548
1864,267981.915070487
1865,316572.035145566
1866,340938.176960316
1867,259338.012796574
1868,307976.802674266
1869,228619.852541536
1870,273108.996106791
1871,261956.763906598
1872,160276.683127513
1873,212136.428925265
1874,162460.500183443
1875,235160.104156801
1876,189566.505322947
1877,245700.149128184
1878,231718.071995611
1879,137447.683476507
1880,141803.219504029
1881,268594.234638042
1882,242615.738662875
1883,181308.776715384
1884,196307.511068358
1885,273144.443797545
1886,295268.306508637
1887,248496.278594564
1888,306338.242930122
1889,160973.558027356
1890,102196.763088168
1891,181497.670491446
1892,81911.7291100273
1893,143031.244666822
1894,135139.975692793
1895,148880.948252412
1896,119264.292575785
1897,113062.96908281
1898,123105.915137927
1899,169150.503438936
1900,170465.93192817
1901,126927.233446948
1902,153815.979866616
1903,187569.844031563
1904,105150.492296153
1905,186717.206356854
1906,122995.117814163
1907,226203.244470125
1908,129135.433803729
1909,143562.225187289
1910,125913.651827079
1911,210314.152360712
1912,299698.304358264
1913,165210.485427548
1914,57002.1634269063
1915,275226.741546492
1916,31333.6987694207
1917,248259.304459188
1918,161792.340403779
1919,204323.996032681
1920,154241.426315429
1921,345187.508463552
1922,334043.948692877
1923,208894.749207775
1924,247705.381633344
1925,197023.039757214
1926,344240.986909667
1927,147701.887331392
1928,165807.113870098
1929,128552.853168663
1930,152250.845885774
1931,148968.655271356
1932,136767.732206608
1933,151397.537210102
1934,179029.952936817
1935,174401.515174571
1936,186991.633612693
1937,172527.616765078
1938,173555.277141517
1939,239671.033627049
1940,211245.081265637
1941,159911.430783366
1942,179128.007492821
1943,214507.915104197
1944,268784.269510167
1945,337237.050035466
1946,154385.533831248
1947,304647.306413216
1948,188320.705893857
1949,249327.226240045
1950,236310.299275785
1951,278852.274960601
1952,259857.657028792
1953,210120.549171042
1954,203171.625205443
1955,120879.269779511
1956,286567.189530016
1957,161261.673736529
1958,293427.833285592
1959,110543.044749721
1960,87521.7607859617
1961,114688.020798935
1962,129360.105824339
1963,152674.480080998
1964,114304.262802878
1965,156025.108116621
1966,177276.46023649
1967,308100.470678055
1968,378061.404464917
1969,349856.854599676
1970,350876.212084254
1971,389090.987750601
1972,323566.262179967
1973,246313.457843461
1974,282343.784397019
1975,393463.944414599
1976,304136.77374135
1977,340410.555208721
1978,297310.424916123
1979,324467.923688291
1980,210025.879099062
1981,350603.22856896
1982,253372.792234697
1983,230628.592966441
1984,171206.291929007
1985,259721.314628939
1986,250734.491781653
1987,196920.824641799
1988,159895.592350807
1989,186009.856021754
1990,204558.588556876
1991,249075.618245075
1992,239431.387703408
1993,179056.658407343
1994,227978.613120492
1995,179037.22482193
1996,275480.850874141
1997,298488.610599988
1998,315143.124086355
1999,225506.254167037
2000,286795.882812376
2001,243542.416159077
2002,268597.244831369
2003,258302.439696678
2004,272211.126784994
2005,258544.492958114
2006,241327.356965579
2007,280206.364145857
2008,236009.456341067
2009,168823.274623571
2010,196466.35804846
2011,163226.453835486
2012,201154.76143005
2013,162964.480356741
2014,182327.899320564
2015,208426.338928863
2016,173561.7428248
2017,192992.543145839
2018,107134.745756646
2019,135743.981347554
2020,123128.703532098
2021,110395.523707097
2022,204622.771111418
2023,129667.0707419
2024,236291.601595102
2025,329403.093203876
2026,181281.886669841
2027,154460.328334023
2028,169045.816537752
2029,175953.245447298
2030,297000.77991771
2031,272014.911982311
2032,271480.587046971
2033,288088.462367808
2034,197761.257564561
2035,229396.933100314
2036,250079.354111518
2037,253423.323341916
2038,271089.104181668
2039,224334.17632843
2040,311691.261740752
2041,300494.864592924
2042,190426.732494428
2043,213014.648712484
2044,208031.020064806
2045,238160.833245516
2046,144067.238299457
2047,140193.395790696
2048,138300.991282012
2049,162058.041713973
2050,195711.950975573
2051,102460.379631663
2052,129600.469707245
2053,145256.787904907
2054,52816.6931086973
2055,170808.531100184
2056,126751.106744346
2057,125845.178356077
2058,206384.535561426
2059,135722.418913304
2060,170259.863021819
2061,223980.303538444
2062,127962.912762568
2063,99961.2963010033
2064,143877.425851252
2065,124456.685091536
2066,191874.591261062
2067,131386.855116154
2068,157294.236493702
2069,55742.4519238232
2070,106465.895347016
2071,59519.7093559429
2072,153377.109850638
2073,153660.271520467
2074,216125.915230406
2075,172194.218348488
2076,120817.465096557
2077,130822.242247778
2078,118607.262994915
2079,147566.957499524
2080,122567.26666628
2081,143554.141811104
2082,136377.806468758
2083,129145.72134193
2084,90498.4698837711
2085,104637.738589402
2086,168894.416695917
2087,117275.877506645
2088,92135.8685278226
2089,68401.8873517509
2090,136010.223734343
2091,59109.0177672601
2092,92221.2416059348
2093,105846.682849207
2094,134045.834462791
2095,144101.211926329
2096,99109.2973583559
2097,116550.102662165
2098,139990.758602459
2099,8785.26312593284
2100,79196.4940530572
2101,126441.167920109
2102,163677.661278984
2103,105747.067870083
2104,138506.954625458
2105,119601.712995343
2106,33023.4917100627
2107,232623.292150587
2108,111717.446172303
2109,74362.7661263914
2110,130412.575721869
2111,173581.66143319
2112,110049.068642161
2113,116439.100553412
2114,152650.705025588
2115,149303.352056839
2116,110855.887676664
2117,142091.980211243
2118,102995.83347412
2119,133432.464923219
2120,95237.1267461742
2121,78534.9920683094
2122,60685.2557384855
2123,74527.2264060347
2124,184022.217251849
2125,138749.989246274
2126,150805.940334974
2127,187264.494729016
2128,139700.206316207
2129,113514.087737574
2130,140718.378770328
2131,158166.563999718
2132,111434.068116803
2133,141495.814698537
2134,125058.337857552
2135,110415.522192512
2136,27860.904663984
2137,104715.507331802
2138,153606.052850995
2139,178012.368837906
2140,143219.574623134
2141,192587.126842158
2142,131385.233325023
2143,131542.79225752
2144,148787.733462384
2145,140146.394358002
2146,176407.392544112
2147,178771.127211413
2148,130661.038487606
2149,167832.98964678
2150,233626.533773911
2151,121727.348667206
2152,144319.423011044
2153,196341.511022252
2154,105051.825688819
2155,149715.608803503
2156,219795.947999202
2157,264895.16380867
2158,215066.465855343
2159,199346.802966258
2160,184170.400717098
2161,271822.060698345
2162,377348.531520434
2163,346335.739442209
2164,285691.363201852
2165,189099.731935543
2166,172508.282496157
2167,243798.285298576
2168,186139.276314199
2169,201095.240597288
2170,214397.949908278
2171,175950.603480743
2172,147155.801506642
2173,168125.247174637
2174,211615.436472036
2175,302666.155110845
2176,309622.097710746
2177,204482.557684009
2178,218805.447780106
2179,177974.55587393
2180,224152.418190462
2181,214278.227533852
2182,254501.881926831
2183,211443.892180279
2184,147632.276292073
2185,158909.331242399
2186,183232.216851068
2187,179994.488428861
2188,152237.01912411
2189,325834.473858605
2190,45395.3700834225
2191,48834.5349126538
2192,72225.1764220944
2193,73454.4719160516
2194,101508.013785153
2195,98812.6899309539
2196,85199.8052651373
2197,88619.485247694
2198,189758.779009963
2199,160949.832625711
2200,135545.333923386
2201,157096.970499171
2202,217150.360708136
2203,126563.700372745
2204,144398.367357499
2205,99907.4966220867
2206,154674.890519991
2207,207344.547435899
2208,215632.878145531
2209,194952.750030167
2210,140535.369266492
2211,140757.694019856
2212,126867.871498847
2213,94151.6671199682
2214,120238.612123396
2215,95022.0228478015
2216,134270.979257619
2217,4352.5574081861
2218,85287.6716496434
2219,67104.1214498968
2220,61394.6795497643
2221,275799.234496294
2222,257840.225524055
2223,309735.648407949
2224,204761.601476819
2225,108845.251425204
2226,184720.409463257
2227,241531.387215004
2228,293850.040278697
2229,240102.749210768
2230,139540.714758672
2231,205024.229512782
2232,193513.060725229
2233,215856.011319905
2234,277120.845645036
2235,226034.685249092
2236,279106.053428012
2237,332875.964451924
2238,240529.387064737
2239,118544.00383202
2240,190727.660719404
2241,157822.633094192
2242,145262.875518238
2243,131371.624021462
2244,77794.4138645368
2245,60099.5147914414
2246,148298.410812655
2247,135137.242650341
2248,133731.856586226
2249,128268.473241535
2250,149306.850243073
2251,151534.96388588
2252,213177.43490136
2253,149390.063360318
2254,173096.345010388
2255,194427.391821652
2256,183597.293856044
2257,182552.69414005
2258,188871.167117267
2259,162309.342162598
2260,181683.217655394
2261,212185.032937836
2262,219280.744038415
2263,283147.200083087
2264,443252.645471465
2265,206302.68053072
2266,289129.052267371
2267,349570.695396772
2268,387730.529534981
2269,172464.156729403
2270,209435.329634287
2271,238387.20522568
2272,237757.761886714
2273,200680.934913853
2274,199917.093777239
2275,170761.099312435
2276,229479.669700376
2277,184411.462293056
2278,168757.284452287
2279,108196.885675091
2280,95230.0791039155
2281,172147.311476847
2282,194089.187590201
2283,154694.335115582
2284,130078.885658977
2285,183600.005846099
2286,129671.12793879
2287,344674.176655874
2288,277018.927139972
2289,311250.795824363
2290,360396.332228906
2291,260200.558291755
2292,384951.184131424
2293,383634.983135113
2294,323474.148897835
2295,415051.133059209
2296,249321.709841776
2297,264467.39343281
2298,322677.49576925
2299,310159.146769889
2300,285377.57206995
2301,269114.941974449
2302,274550.313019873
2303,269265.283843626
2304,242912.945497993
2305,199492.181447897
2306,201244.742887257
2307,217401.716526367
2308,241051.09966797
2309,305571.290456299
2310,228850.748643126
2311,237368.738931072
2312,171009.117364486
2313,164113.734225314
2314,186387.344286048
2315,163004.436689504
2316,171209.800821173
2317,215980.264346652
2318,165308.441404227
2319,186462.029318903
2320,212075.733044809
2321,275030.147587599
2322,197741.26649623
2323,220390.858384569
2324,192912.285224875
2325,221771.788700534
2326,185005.347090304
2327,190944.428283763
2328,220116.133157378
2329,179182.651781155
2330,178567.19008194
2331,320363.237224912
2332,328154.65208153
2333,285389.267280773
2334,228603.07082577
2335,252798.63026089
2336,300691.127045399
2337,218930.941703738
2338,298292.827154315
2339,260414.23557181
2340,372059.341203619
2341,218519.251442183
2342,274708.520271468
2343,251562.398526104
2344,214611.754878816
2345,241517.958725032
2346,232403.355677661
2347,207494.954158287
2348,232528.15942907
2349,138316.972202341
2350,259962.353272876
2351,236226.276529567
2352,272516.984551897
2353,221029.187811212
2354,147210.268203025
2355,171881.173887873
2356,179292.564481122
2357,221355.085708118
2358,177406.538070078
2359,121707.758752813
2360,105675.572025266
2361,156627.799093605
2362,244320.019859342
2363,144778.68879473
2364,194310.805302651
2365,248985.731819249
2366,213481.816453957
2367,232985.413514276
2368,221662.42429599
2369,229263.78244262
2370,182331.849264537
2371,173763.257487959
2372,206014.402440209
2373,252561.249808363
2374,256443.244532367
2375,238679.367683646
2376,304618.112984539
2377,300098.243852502
2378,155121.975967242
2379,221153.680530754
2380,180757.178546057
2381,201955.399145675
2382,246344.409259985
2383,218619.640648351
2384,234561.529700387
2385,187959.490428863
2386,157165.887283431
2387,130804.711482083
2388,93764.5931922096
2389,120922.702021672
2390,133633.778892406
2391,151351.260607948
2392,104106.061479395
2393,207818.697725552
2394,168746.145288267
2395,199699.833477931
2396,153948.683477119
2397,235109.614721992
2398,139006.987357173
2399,23635.2941954064
2400,10444.3943048268
2401,104832.302935803
2402,135724.789996576
2403,149727.254856039
2404,161596.969978861
2405,192616.504522201
2406,148286.547570543
2407,129990.738894144
2408,152104.575184147
2409,109338.165894154
2410,217693.546979731
2411,106175.996593012
2412,158016.212375214
2413,120005.001266565
2414,142024.985765937
2415,145167.791120778
2416,147224.720785952
2417,136788.854308392
2418,118593.499470923
2419,87717.3874977779
2420,121960.984529333
2421,135789.718526482
2422,103551.494057858
2423,109572.237271258
2424,130261.868951638
2425,161036.428526682
2426,102298.699635048
2427,117992.045391226
2428,211758.50170448
2429,114588.658163471
2430,159408.131779224
2431,113042.490076055
2432,128524.515604471
2433,145503.578102364
2434,132435.638016932
2435,142691.563407531
2436,98798.3135187135
2437,91062.2136838794
2438,119738.262756126
2439,111209.102205564
2440,145330.174571877
2441,115409.056374637
2442,93682.9479278536
2443,130562.194619502
2444,132218.42014073
2445,89165.0834704807
2446,130769.972907706
2447,226234.932834777
2448,142379.65319143
2449,129865.194654737
2450,177851.073674368
2451,103771.686490986
2452,238757.532514536
2453,67866.7568433949
2454,81701.7738690982
2455,110579.260385566
2456,123837.380443562
2457,105282.185791502
2458,119543.774999855
2459,91492.5318476099
2460,136537.815743707
2461,114853.750315309
2462,113583.61532392
2463,117918.863031179
2464,157329.083384555
2465,141355.601801476
2466,119697.942010039
2467,163280.916894546
2468,105801.55859756
2469,95025.103782658
2470,209101.170338556
2471,221287.333901216
2472,162903.368043594
2473,103380.814623505
2474,76915.6115627128
2475,225900.396629664
2476,98319.2881027383
2477,129748.290032365
2478,156583.185307883
2479,108034.462975002
2480,136983.694979433
2481,131432.918034215
2482,135925.093198251
2483,109073.587574131
2484,128919.250316027
2485,122650.605843801
2486,133181.550037297
2487,183380.528555068
2488,167537.827005104
2489,174750.43427703
2490,138136.616708079
2491,91946.26212386
2492,201485.99010896
2493,151304.723180614
2494,170059.5484656
2495,83315.7726882418
2496,264555.328165281
2497,159562.962182335
2498,107082.701512426
2499,75000.5157823837
2500,123762.189502168
2501,144960.339546988
2502,142764.352766466
2503,87016.3947759426
2504,172998.497086745
2505,206342.824725107
2506,281980.076036169
2507,289961.708799641
2508,282372.289446457
2509,247467.355353387
2510,251184.919724641
2511,193770.615315681
2512,193098.838304109
2513,222932.631901511
2514,241878.854664152
2515,158286.544946533
2516,176875.924985659
2517,154660.436502179
2518,164172.899473396
2519,206618.183739441
2520,215262.492157933
2521,181040.476714948
2522,224102.584030577
2523,138154.595960529
2524,148761.854651932
2525,156279.112290904
2526,140981.7408675
2527,107301.503367673
2528,131560.06056225
2529,138258.015264003
2530,123951.592404958
2531,265333.969098657
2532,210052.352438406
2533,206669.77746556
2534,275695.737731693
2535,291757.330437327
2536,239791.751962239
2537,255367.956513974
2538,182601.595962074
2539,217705.85290392
2540,183927.65863218
2541,185382.791424679
2542,136512.145924363
2543,141348.976569551
2544,94219.6577706024
2545,132481.309201705
2546,150092.618139487
2547,175123.849533379
2548,134121.987221874
2549,153953.119213882
2550,527964.981649641
2551,179204.260282717
2552,104437.009175974
2553,46643.7483807388
2554,97920.1774215974
2555,132568.19587529
2556,76222.5774070353
2557,111783.258755064
2558,134535.378022302
2559,130387.577964387
2560,131376.001856975
2561,149310.576251218
2562,136966.837611586
2563,128147.200696977
2564,197554.862257871
2565,136333.200323563
2566,104155.724181869
2567,126641.773337139
2568,205634.739550107
2569,200994.611347884
2570,138508.39489828
2571,164673.377432009
2572,202344.313456374
2573,251128.937660775
2574,288992.468576158
2575,146933.20352157
2576,93311.2362331323
2577,142621.732308745
2578,91479.4998235841
2579,2033.69570984153
2580,110056.81405433
2581,119217.20376662
2582,135802.90031869
2583,296368.603919357
2584,187819.573622488
2585,207830.736424907
2586,230063.537913098
2587,231091.167019257
2588,186573.259413965
2589,173373.480118059
2590,243801.283946785
2591,309582.645601257
2592,227705.34796719
2593,257148.185443938
2594,216788.533494123
2595,237318.359226449
2596,338493.931495502
2597,189649.177358895
2598,247550.220911068
2599,340342.025521754
2600,176567.843889108
2601,135990.693816763
2602,65137.0978981222
2603,70199.2777381105
2604,70123.6411534667
2605,54941.1280610075
2606,144954.488758943
2607,252915.2376342
2608,229432.707943286
2609,152070.559304195
2610,110908.95063415
2611,153717.131604081
2612,166755.717072119
2613,139953.135671174
2614,137025.990209057
2615,168503.609555671
2616,175859.107270516
2617,205618.500056406
2618,237022.169922565
2619,232401.821770047
2620,190093.387105648
2621,152234.281598833
2622,163179.287763015
2623,239323.024185068
2624,271705.092349245
2625,272262.402162202
2626,206146.745116977
2627,197287.152182397
2628,337338.959128316
2629,360892.425853092
2630,292982.255187828
2631,399877.036292613
2632,317776.600026557
2633,305714.419167053
2634,373916.122828615
2635,185232.996512405
2636,192541.854249598
2637,217306.047846377
2638,214168.880375917
2639,186395.658031723
2640,196042.36297242
2641,87488.4999359572
2642,209245.008702764
2643,141703.295456766
2644,132057.151008965
2645,143505.324501275
2646,128052.591947732
2647,154728.433562918
2648,170668.80060537
2649,140690.50218043
2650,161786.593591609
2651,134286.767499356
2652,337089.965780136
2653,262914.5493662
2654,260400.022377613
2655,364876.343411501
2656,297963.716597177
2657,319794.949037994
2658,235871.540759953
2659,247030.783588776
2660,298685.00339516
2661,338509.320659195
2662,346623.637759812
2663,286715.840839249
2664,289779.354875261
2665,327040.332854203
2666,309904.729741963
2667,158696.669776381
2668,183080.396238387
2669,190267.112409223
2670,254468.834771295
2671,185979.868883469
2672,216639.717627604
2673,231601.685220551
2674,235316.529493243
2675,189499.455090197
2676,188093.24855181
2677,186040.525876932
2678,235132.093327411
2679,266875.608867184
2680,264068.786837898
2681,355995.180530153
2682,290332.155411875
2683,388481.821521082
2684,283632.724798583
2685,287949.924983434
2686,238938.943364109
2687,281904.791216174
2688,248139.29042242
2689,220301.5220752
2690,325651.927340959
2691,162185.39895585
2692,149239.442467247
2693,222094.220101325
2694,151862.469655087
2695,199804.864040792
2696,191860.940332878
2697,162685.986940994
2698,199093.485621183
2699,186796.46128266
2700,164867.771476756
2701,153143.539061348
2702,112405.806502367
2703,156688.069484397
2704,145217.58699105
2705,120167.2483115
2706,113721.23600415
2707,121799.116977242
2708,132821.585613797
2709,109407.426234372
2710,128096.701368924
2711,273679.435071442
2712,305540.832906308
2713,175882.825133753
2714,159287.620988762
2715,178483.179028483
2716,158783.053010969
2717,170315.447958539
2718,234034.860886177
2719,164046.356742137
2720,233672.080986115
2721,141712.885059938
2722,164317.033848622
2723,178737.388515255
2724,131093.749789427
2725,135732.466512527
2726,144324.045745374
2727,194585.729919409
2728,186196.219474196
2729,129224.235895599
2730,146097.25571378
2731,152250.92171962
2732,105458.770052436
2733,168221.53539924
2734,132951.305547767
2735,140907.043605936
2736,112599.360270912
2737,110022.614252421
2738,137736.084965686
2739,176453.523752171
2740,157497.689459047
2741,135026.781412435
2742,197640.303644927
2743,169924.220366229
2744,169159.716760022
2745,173989.84483409
2746,119169.151287834
2747,181982.270149295
2748,135552.736142502
2749,129126.653610641
2750,114088.940042144
2751,130712.441135217
2752,227341.766437093
2753,143932.580640692
2754,223161.948429965
2755,133956.768555185
2756,38502.8939066426
2757,54385.6906667266
2758,62993.3087690984
2759,164433.1110668
2760,110131.896698767
2761,181747.175774705
2762,162498.28219678
2763,232637.869388632
2764,189415.323623945
2765,272928.457263322
2766,100625.74292031
2767,43908.6883417138
2768,107669.172280107
2769,135039.476222307
2770,191671.436521705
2771,114487.092057892
2772,116717.697794001
2773,160407.805929988
2774,135820.040193673
2775,106235.716794112
2776,183447.444852823
2777,209629.256000787
2778,147843.410209777
2779,108390.009060391
2780,122535.560191026
2781,94866.8987161402
2782,67100.9349267562
2783,61513.9108055923
2784,135930.881078847
2785,137743.544449223
2786,35407.2802338763
2787,140282.775434503
2788,43641.3242320138
2789,199654.246178115
2790,61752.3821226459
2791,111053.828692508
2792,33085.2337408679
2793,132514.657156973
2794,53816.627181822
2795,95708.2270652088
2796,94146.236796484
2797,199674.624787934
2798,108180.671173957
2799,107729.124278739
2800,70687.6371314189
2801,139576.200623912
2802,118333.268946588
2803,178050.337497885
2804,148000.959791445
2805,98825.4253122401
2806,72942.1989552504
2807,187148.66184143
2808,174674.96735813
2809,145959.546765739
2810,132545.843091694
2811,174999.207657925
2812,200997.091042182
2813,181386.412519918
2814,195948.132713783
2815,98186.7819384589
2816,237696.678634333
2817,117697.653450919
2818,137328.25057253
2819,171141.380725046
2820,136869.412200786
2821,106643.061717207
2822,204401.05490027
2823,258671.764843211
2824,182131.641031763
2825,172470.790903064
2826,123489.214713165
2827,157352.571696043
2828,211382.082736222
2829,219940.982727877
2830,219595.238526625
2831,209872.399749398
2832,238764.332306458
2833,291532.244937153
2834,196397.893178069
2835,232691.471307303
2836,213877.48281862
2837,182953.177145802
2838,148151.896847563
2839,171388.236195472
2840,227185.371441414
2841,202150.757153119
2842,219742.450365656
2843,159924.87613116
2844,216565.921469711
2845,127131.272594576
2846,222012.362136267
2847,190663.398055726
2848,239777.303906746
2849,190753.367045473
2850,271379.574260167
2851,207392.791685339
2852,241209.385293668
2853,221160.801034287
2854,176251.907326209
2855,232895.821938946
2856,186259.818584312
2857,187757.876973443
2858,237882.085070292
2859,104444.981397483
2860,179395.184051562
2861,136229.564400587
2862,195292.235323108
2863,144899.310131362
2864,197959.964940086
2865,181593.08598308
2866,186300.832887235
2867,63609.5646666114
2868,122060.276724504
2869,90771.7365041498
2870,137275.455873867
2871,61808.2243550834
2872,1447.95770248784
2873,103927.088579858
2874,127740.970423471
2875,140541.887398994
2876,193982.369872084
2877,143417.748330747
2878,174325.394619451
2879,119592.654677763
2880,106139.363351006
2881,133916.31940565
2882,129674.574963335
2883,218119.081473562
2884,193910.323944132
2885,155923.682235501
2886,187853.135579722
2887,109486.971570854
2888,159418.232231009
2889,40731.7847744441
2890,64125.1427114365
2891,144197.873649785
2892,21679.4119856645
2893,87642.4734294351
2894,21163.8857293144
2895,302760.469583594
2896,280381.221990944
2897,220031.884851929
2898,170003.572347981
2899,236516.821529524
2900,190937.259008511
2901,224432.401525368
2902,199345.781335825
2903,319698.312479076
2904,342575.777946841
2905,54806.0223053903
2906,240055.703386114
2907,96698.9833171203
2908,123563.359429061
2909,163911.407690779
2910,51820.856438473
2911,65120.9606695062
2912,142419.539698915
2913,71988.4132632089
2914,43978.9895508437
2915,49869.9853495048
2916,67202.5509707819
2917,194252.767123181
2918,122275.924542036
2919,227200.08335942
