"Id","SalePrice"
1461,139395.805060346
1462,190568.229520313
1463,205498.842471254
1464,224010.847489653
1465,249492.729544399
1466,205060.571148334
1467,210670.576960105
1468,195746.264328555
1469,246088.465270017
1470,146587.569647399
1471,220021.595191017
1472,137773.217805765
1473,128103.988400998
1474,179921.176124496
1475,144638.546311636
1476,372921.633721125
1477,311795.251191102
1478,338745.523486502
1479,340422.178900638
1480,445098.725166576
1481,362057.686627097
1482,272927.582905092
1483,203721.836702824
1484,201405.001699011
1485,223893.731028946
1486,231850.048141661
1487,351633.591203178
1488,265001.110800852
1489,234832.450778123
1490,248061.637231553
1491,232037.430634229
1492,122974.161562025
1493,250346.996736567
1494,337770.63927193
1495,334239.652543325
1496,254945.930844395
1497,208193.528471816
1498,201487.476290287
1499,197777.754296984
1500,189553.117706083
1501,217345.842131506
1502,187575.730722215
1503,304420.992251442
1504,268827.017389466
1505,250121.71157281
1506,231112.450525321
1507,272208.563356979
1508,228022.801719971
1509,196024.677681531
1510,178679.862922906
1511,177939.629701988
1512,203956.168862594
1513,191674.746472548
1514,190816.262406569
1515,244685.189049685
1516,192154.513541577
1517,216653.339642768
1518,158984.427805593
1519,251439.144137654
1520,162741.724194736
1521,163387.545885742
1522,219357.332641045
1523,134174.285707875
1524,154925.836503514
1525,145907.416931163
1526,127164.856359118
1527,136581.349148489
1528,177171.834724754
1529,178691.731714473
1530,242220.70418376
1531,169335.472788843
1532,127048.480675444
1533,184333.885722671
1534,169468.358630456
1535,178433.244231103
1536,134774.922185301
1537,88440.9222398848
1538,210190.360739018
1539,255433.997037086
1540,156095.416267044
1541,179219.217749977
1542,167178.297779441
1543,221180.086447335
1544,107833.713172476
1545,157913.03564507
1546,172693.021351206
1547,156473.019492277
1548,171185.384323237
1549,153785.582722141
1550,169786.184408795
1551,154936.010823758
1552,170426.36039688
1553,181624.609462102
1554,160962.417360161
1555,184620.96122698
1556,121787.988927296
1557,128560.858798447
1558,145703.640952618
1559,122794.431625076
1560,162870.793382422
1561,160890.047108384
1562,165224.550083958
1563,155991.361362736
1564,191039.071357431
1565,181091.976357667
1566,272715.326726593
1567,108053.294854572
1568,253503.093763629
1569,156494.587215411
1570,178565.847138125
1571,155406.805996321
1572,176943.876989464
1573,276822.098053425
1574,172601.459623454
1575,268055.7921169
1576,269035.154070324
1577,217464.555108005
1578,189544.106761748
1579,170973.162758145
1580,224802.681366812
1581,188077.672028394
1582,164051.184189585
1583,314916.466768296
1584,249602.84570908
1585,177439.790432193
1586,88351.6718662305
1587,141158.058124663
1588,196794.889477088
1589,140108.506586415
1590,171253.334471917
1591,114493.121293019
1592,170763.872575028
1593,164644.330123425
1594,183078.870590995
1595,144585.775257198
1596,261285.73633386
1597,227464.406276426
1598,244874.45006861
1599,228763.510530799
1600,209963.582133722
1601,70742.2926238574
1602,157370.319275057
1603,121929.295525451
1604,300520.946544782
1605,275264.081459411
1606,196314.737729017
1607,210297.709890659
1608,243422.113894866
1609,227864.145544813
1610,181416.257033772
1611,180028.614160449
1612,199859.165877797
1613,190543.711174268
1614,175935.38330748
1615,118530.459515909
1616,100850.154534596
1617,119947.550187912
1618,152805.06383099
1619,171401.762666669
1620,212355.723102844
1621,170069.210541702
1622,177019.520999673
1623,302325.159832441
1624,242186.726969379
1625,155540.530470293
1626,217301.131173809
1627,214186.879400949
1628,319792.063200329
1629,221519.867840382
1630,368104.718582199
1631,278973.014652849
1632,292496.600721509
1633,217387.010435074
1634,222693.592330592
1635,211624.409465596
1636,189467.017522904
1637,216228.817663393
1638,230844.430394792
1639,222222.068230714
1640,279689.779075464
1641,223774.66226541
1642,275567.254162399
1643,246487.390210587
1644,261441.371048996
1645,231111.250352626
1646,201029.365446801
1647,204136.169091711
1648,160665.520093595
1649,162266.425729862
1650,148531.487741571
1651,150450.405571027
1652,139900.552870457
1653,140381.244048461
1654,177655.077091286
1655,172020.434665133
1656,171808.953735455
1657,178568.525970906
1658,179116.377397559
1659,155251.09146867
1660,190709.910667152
1661,410514.703340463
1662,400044.072077591
1663,378275.1790906
1664,455378.581851228
1665,335999.779251279
1666,367104.915675969
1667,369970.78911857
1668,360469.055942923
1669,343690.957380825
1670,359590.895214294
1671,306797.637025891
1672,406241.856059354
1673,333090.884747563
1674,303053.542935381
1675,248967.54670488
1676,251159.300138084
1677,265882.60387365
1678,452131.722571363
1679,393880.187329849
1680,351598.224634731
1681,298636.784694238
1682,358803.087238547
1683,247720.225286953
1684,211643.913854376
1685,211003.688109478
1686,208395.953526399
1687,215534.776744518
1688,229819.486649903
1689,232350.046915444
1690,233020.66173913
1691,225205.10009517
1692,287509.678389007
1693,211527.608335275
1694,213953.118086209
1695,204189.913328659
1696,290424.975965212
1697,209559.999184124
1698,371757.772068495
1699,351277.385260997
1700,303756.064058242
1701,323938.607239223
1702,266336.914716396
1703,263733.492843337
1704,295741.900593625
1705,272791.681380362
1706,265830.807613019
1707,249549.679778887
1708,229895.964077055
1709,282201.150656803
1710,252393.209107594
1711,289888.608657716
1712,288804.447896899
1713,280240.089848876
1714,248214.685603252
1715,238658.473132659
1716,210438.401171362
1717,215452.982367292
1718,164302.268211835
1719,255064.835204474
1720,278444.076471844
1721,198406.959705162
1722,143854.705279085
1723,181761.166623796
1724,250265.983532022
1725,269779.416986759
1726,218886.449454203
1727,183643.225292356
1728,212668.155010328
1729,201020.191536305
1730,214046.131393807
1731,158433.102981171
1732,154246.036441957
1733,142524.354564692
1734,152318.043967508
1735,159260.916346127
1736,135727.080840842
1737,322836.502889414
1738,295763.755558452
1739,282360.262984605
1740,235695.477778759
1741,208702.652644204
1742,207635.964603265
1743,217742.616556251
1744,316903.191503818
1745,246701.827310102
1746,258981.589035527
1747,256333.998663131
1748,253644.951361145
1749,181991.783732775
1750,179602.208755413
1751,275416.13642972
1752,144948.841892188
1753,184582.217235636
1754,245363.594328175
1755,205961.799534218
1756,152507.423823218
1757,146216.209588067
1758,179753.68676359
1759,198907.454512822
1760,192738.692913408
1761,190174.707086812
1762,210178.541329776
1763,228921.342161368
1764,142879.55525664
1765,210472.412145166
1766,218837.118249473
1767,244931.432301741
1768,173777.71372128
1769,211946.316635801
1770,189670.11143315
1771,163963.523325227
1772,164410.777739659
1773,150274.398312887
1774,191014.086030757
1775,181028.865263848
1776,161759.407018702
1777,142221.528294547
1778,180208.849828493
1779,157395.440028662
1780,217348.083175975
1781,155400.28607503
1782,100895.698780866
1783,173793.899595017
1784,134552.328349604
1785,150365.760341034
1786,187162.741235334
1787,211512.697437514
1788,63566.2350525076
1789,137660.434840316
1790,90863.7542387719
1791,236784.194055583
1792,192360.047503032
1793,180370.287365747
1794,209057.73475479
1795,171212.11801232
1796,183272.750241437
1797,169478.242241289
1798,157986.049166807
1799,138480.618689049
1800,163628.931355541
1801,146620.117996996
1802,186270.19376701
1803,200345.989811975
1804,167988.739037498
1805,177014.274827785
1806,173357.090417689
1807,199490.033578023
1808,161382.584922901
1809,153952.245325132
1810,171904.069565805
1811,120097.31103034
1812,137483.43363196
1813,154665.006773513
1814,120746.527173728
1815,70739.6716200561
1816,127921.810358096
1817,146044.753517408
1818,193439.072286339
1819,164889.828130079
1820,86571.774996801
1821,165182.833200617
1822,191910.646377214
1823,76668.2836396432
1824,174504.655986568
1825,166407.452561674
1826,131861.615075481
1827,136223.929692108
1828,166951.331329922
1829,179071.681109849
1830,185517.502606273
1831,201190.994383886
1832,136290.295310129
1833,188915.559002703
1834,159768.438135256
1835,149637.15370555
1836,168745.69310489
1837,107234.939459029
1838,140981.476026619
1839,134898.414733132
1840,186392.112886567
1841,181704.315349911
1842,131917.387440413
1843,163023.667055042
1844,198056.137993511
1845,178855.968525232
1846,184088.641839974
1847,201050.283242754
1848,65238.3294091614
1849,156993.55168371
1850,149374.418774631
1851,187287.086523019
1852,154221.375770486
1853,156608.935850549
1854,194341.756798952
1855,187782.026984774
1856,252524.559171288
1857,192901.814021662
1858,194939.433565069
1859,169650.424998379
1860,179466.756889293
1861,168641.246614411
1862,325558.289551273
1863,317260.606575664
1864,317270.248676646
1865,350321.342537683
1866,336575.832358258
1867,257023.638864454
1868,303909.914643277
1869,240764.027437972
1870,260362.951091496
1871,288817.521526932
1872,208465.153758549
1873,261252.882670471
1874,171883.128581174
1875,232422.384566903
1876,228463.045960084
1877,241194.109504799
1878,242945.275504925
1879,164992.636481288
1880,167481.793002014
1881,267983.030218038
1882,276703.42545591
1883,223219.112760039
1884,233591.680544459
1885,279947.471077308
1886,312897.049139073
1887,250577.192101305
1888,288800.351373527
1889,202836.849793506
1890,143392.932805072
1891,181966.055928032
1892,120557.633427555
1893,168520.422154253
1894,154032.940646807
1895,174652.796075953
1896,159808.061331581
1897,156911.332026597
1898,152266.08951405
1899,197200.623115241
1900,202701.405186447
1901,199142.867466887
1902,182551.760256276
1903,260164.452503116
1904,182913.925474828
1905,225686.424727648
1906,202331.365022825
1907,247444.924102279
1908,149576.826787446
1909,173271.871641624
1910,154889.780652168
1911,249809.941831903
1912,325020.067119585
1913,201423.447398704
1914,99373.2123647069
1915,330292.754994385
1916,81478.4383706919
1917,284221.120728962
1918,172891.172907288
1919,209361.131713169
1920,195739.833344931
1921,363072.565170371
1922,336155.275264798
1923,255836.381917712
1924,255556.426380451
1925,240637.061267052
1926,364526.688307991
1927,160774.661052948
1928,196075.795295043
1929,148091.840161849
1930,165658.492417871
1931,170939.374239823
1932,170658.32665681
1933,221830.57795416
1934,211977.06219469
1935,205114.005091867
1936,235152.080959209
1937,212602.327892656
1938,202765.071170132
1939,296797.965628501
1940,251394.627453934
1941,204640.976033802
1942,214934.103356748
1943,284401.35987725
1944,378880.749976863
1945,394769.47730635
1946,189643.309766953
1947,222565.787806794
1948,203482.808092383
1949,265249.415779947
1950,232730.688028035
1951,286977.686067818
1952,250203.022499236
1953,208861.224675371
1954,235455.019285161
1955,167575.639258353
1956,312070.621346363
1957,196910.673424285
1958,306968.922572868
1959,180845.565593773
1960,136131.497066028
1961,152198.821299076
1962,135870.921352114
1963,145055.222903427
1964,138457.252833275
1965,171790.050542218
1966,172542.243037114
1967,342259.904448442
1968,412330.99262023
1969,393316.680927535
1970,422796.028504599
1971,450331.245130959
1972,390552.129404479
1973,329655.563902253
1974,355294.721687179
1975,449913.101732541
1976,327888.849647983
1977,384632.75981908
1978,377591.24736986
1979,352505.687814162
1980,239286.099637703
1981,365608.577285858
1982,277287.819042105
1983,267325.573131701
1984,242544.607224876
1985,263497.014545777
1986,241676.683173837
1987,254643.090981037
1988,206415.757912363
1989,230513.526468622
1990,246876.030494369
1991,285812.620620122
1992,262006.547570246
1993,206596.363821549
1994,264509.220456437
1995,219168.824025521
1996,320670.627393895
1997,352277.717443339
1998,347009.885093576
1999,322181.277898871
2000,353231.364066513
2001,319576.356209065
2002,266638.722399934
2003,279039.841481559
2004,314394.282421592
2005,256602.017680568
2006,261967.701084715
2007,276375.260078538
2008,263068.386812354
2009,227985.87352979
2010,232173.73522366
2011,173075.50675539
2012,212457.984236595
2013,211326.872659043
2014,219725.415178296
2015,248583.450284618
2016,221549.511761998
2017,232204.048747158
2018,148048.675807399
2019,159393.698352227
2020,120663.804104655
2021,138146.045995322
2022,222627.061493525
2023,174075.32842048
2024,322548.262023127
2025,390816.16315913
2026,203621.220236094
2027,186655.151500623
2028,196800.43887469
2029,199396.296634368
2030,284368.932184176
2031,263241.715163357
2032,269931.056513024
2033,276881.986992528
2034,211513.965783439
2035,256197.253169561
2036,240805.966077198
2037,243261.293629138
2038,316831.608546653
2039,264129.256542932
2040,343379.359694071
2041,289826.513461619
2042,238785.082435975
2043,205431.10621273
2044,215808.805667641
2045,238516.016274598
2046,166597.651445595
2047,170401.096789597
2048,177526.518447669
2049,176433.871458898
2050,211347.019767322
2051,144330.994058347
2052,161443.377207921
2053,172315.780539516
2054,108115.411463798
2055,193077.023418974
2056,179465.937251271
2057,142938.587875103
2058,242391.799581129
2059,166254.505678052
2060,194690.649263115
2061,211987.404782774
2062,155700.698508118
2063,142249.271409475
2064,164502.638577769
2065,155601.370387678
2066,214442.027107449
2067,175345.918636504
2068,179263.794509809
2069,120693.263581849
2070,144130.523411284
2071,125592.233970639
2072,182389.095603278
2073,162875.887243018
2074,214183.007571976
2075,207197.118490942
2076,158093.406615671
2077,177788.557263449
2078,157877.693724727
2079,172322.901410287
2080,146664.940695722
2081,165667.036141655
2082,168177.897853942
2083,188621.141374689
2084,133185.40895426
2085,139814.239395241
2086,174814.60345303
2087,159158.823041359
2088,142810.854626329
2089,111316.107485255
2090,171002.694910894
2091,114967.720494707
2092,160221.732772775
2093,169067.416831426
2094,156855.409577602
2095,164372.907674721
2096,120258.854176846
2097,133517.028854142
2098,181903.957237815
2099,61478.8572657786
2100,116931.141467724
2101,150526.186936946
2102,172009.480384772
2103,132559.501020803
2104,178282.334632189
2105,164085.94447159
2106,82661.3413535064
2107,249382.071402652
2108,153879.154012384
2109,134781.787291503
2110,165484.568326562
2111,186866.429637253
2112,172039.110750301
2113,148653.976694183
2114,154142.979593179
2115,192492.312311255
2116,151574.019960689
2117,183836.344178464
2118,161974.235746074
2119,144608.144649755
2120,147177.128460478
2121,121033.554629692
2122,127753.209051999
2123,127666.772874604
2124,218185.556536936
2125,170549.079384197
2126,191402.858416841
2127,208294.664465085
2128,174108.733486729
2129,137140.178468256
2130,170642.145533326
2131,198469.508683361
2132,155810.462195436
2133,164425.868071492
2134,157968.691937094
2135,133878.100040618
2136,80945.3206408005
2137,146434.02545214
2138,157167.83922511
2139,186088.560972758
2140,168360.728793284
2141,208347.354037888
2142,160405.897949826
2143,172286.849731482
2144,134620.241060042
2145,164421.002111488
2146,215401.800403479
2147,177102.530344595
2148,177312.94259209
2149,174390.959282306
2150,268061.885804435
2151,172610.301541142
2152,215014.117133442
2153,201018.287193311
2154,134487.448934441
2155,183468.31767567
2156,267649.080921732
2157,258159.366938178
2158,270107.508109363
2159,244622.405311742
2160,231905.412132953
2161,266579.313854738
2162,376282.315145585
2163,340476.288964658
2164,285511.022476961
2165,243166.95096301
2166,183110.7134601
2167,261531.013243382
2168,216557.04670752
2169,236434.399790248
2170,245682.20332332
2171,186815.860367603
2172,176487.91419934
2173,201850.383176185
2174,253336.789668132
2175,313011.230099383
2176,332653.878277357
2177,269579.719912043
2178,252968.694391312
2179,177410.299771225
2180,260711.546197511
2181,232490.368970147
2182,249200.771395912
2183,228382.960866414
2184,158538.519626158
2185,175573.312646877
2186,191394.592310295
2187,196139.94118951
2188,201554.22067431
2189,321007.534500839
2190,109912.497200482
2191,109387.26600698
2192,94743.8335524155
2193,142484.429011166
2194,139473.62954116
2195,125900.740992057
2196,132659.964878763
2197,146385.746535564
2198,195219.28886553
2199,210281.462950309
2200,187830.410253197
2201,190548.602831937
2202,241974.999133419
2203,191009.655644268
2204,205960.457292207
2205,153587.74135208
2206,182094.963522487
2207,252416.130648371
2208,282648.116165594
2209,253537.911932401
2210,162397.653041138
2211,158666.114194657
2212,162597.072938961
2213,128639.837535407
2214,172489.096966458
2215,133036.405450462
2216,184757.880955452
2217,96511.7606979824
2218,117919.654787999
2219,117082.686109212
2220,114056.92904935
2221,330467.09729143
2222,300541.568943135
2223,301040.920317659
2224,246266.969073639
2225,182046.229292194
2226,207466.605540568
2227,234204.250827223
2228,302733.979558307
2229,285419.827529106
2230,177406.113960535
2231,254930.163627406
2232,208224.398764636
2233,221446.489832984
2234,274719.461046866
2235,251096.407650765
2236,277011.305493667
2237,317018.984688627
2238,258017.187022524
2239,141613.243988359
2240,191750.086619692
2241,168646.976881898
2242,158813.56293528
2243,162556.015409063
2244,135545.448516586
2245,145049.79896955
2246,169284.14153381
2247,160280.685468416
2248,156808.449164038
2249,156695.117601478
2250,161724.589993017
2251,157392.478554055
2252,217426.227840782
2253,188460.880344721
2254,215650.618718118
2255,223472.98027238
2256,217437.102313637
2257,239542.289796919
2258,198654.051414832
2259,212906.498994569
2260,197960.029668122
2261,280392.781786493
2262,294318.325081182
2263,377055.752306841
2264,428333.468933141
2265,196172.602113248
2266,335611.576039059
2267,387436.55477218
2268,432175.24739432
2269,198262.729861563
2270,228023.050032449
2271,244287.69671642
2272,238804.970403113
2273,194142.091604106
2274,216335.96216356
2275,194420.336265378
2276,233655.586692729
2277,216627.466510443
2278,185333.082177408
2279,153365.202646013
2280,136143.869099721
2281,193729.439535981
2282,207075.49123779
2283,147639.896539495
2284,148448.685024266
2285,172314.509589
2286,157293.192801309
2287,400904.046753685
2288,342969.89973542
2289,385797.088055942
2290,446389.889892389
2291,371566.813825672
2292,417619.400273185
2293,447742.165179371
2294,408770.890328028
2295,457286.641397179
2296,324485.612102603
2297,387216.923811994
2298,365862.068564924
2299,375933.957475496
2300,359154.25219879
2301,356770.145337547
2302,307182.380845903
2303,302980.74172454
2304,313395.637016748
2305,262032.756823597
2306,245538.337160469
2307,252882.179019269
2308,279732.087360567
2309,318935.291575594
2310,283846.0679006
2311,266033.377991998
2312,215751.111484754
2313,200895.641122385
2314,221390.937803109
2315,224040.725517308
2316,248948.595574702
2317,220649.613349787
2318,226052.104984552
2319,231786.370515064
2320,231644.112495401
2321,282446.682222625
2322,239341.607080908
2323,237086.215763148
2324,222960.458903514
2325,253193.136941903
2326,211626.570589136
2327,240322.955260113
2328,255609.078519887
2329,221335.693135426
2330,210741.209293696
2331,369458.125510484
2332,417389.894849026
2333,351829.038837635
2334,312881.365494539
2335,326059.666596374
2336,351510.282200859
2337,235500.630563665
2338,292693.213139305
2339,265957.988901529
2340,386001.020495669
2341,247113.870368965
2342,269111.625120511
2343,258875.82037266
2344,255528.915992838
2345,261105.565479691
2346,257874.989755897
2347,238176.247972433
2348,282437.085498145
2349,217261.685889403
2350,322330.916923366
2351,288368.901145097
2352,276168.660881551
2353,274349.167104862
2354,180093.111873228
2355,182473.020892325
2356,184795.294073557
2357,224802.00374589
2358,223326.193269402
2359,160126.494809676
2360,145226.407886777
2361,173039.152297913
2362,286492.39077527
2363,195377.978431119
2364,215298.419920923
2365,246102.586228251
2366,235516.781267956
2367,255864.509641579
2368,248056.916629721
2369,247444.680324848
2370,203232.435880004
2371,200185.403883966
2372,229207.914070439
2373,305009.290558726
2374,313033.876717557
2375,267877.232025362
2376,300024.595136716
2377,344242.063378973
2378,174527.140590148
2379,246980.528747461
2380,175358.440710755
2381,199391.463649147
2382,238263.319687304
2383,229405.672948257
2384,268120.986231592
2385,199338.390218179
2386,169902.361312694
2387,162992.94317178
2388,148120.463791336
2389,157842.229364151
2390,182414.404725313
2391,175509.6260512
2392,151010.076147769
2393,209595.968466186
2394,193898.799665011
2395,240896.760399299
2396,181993.398295412
2397,240546.091582858
2398,159259.083014241
2399,89713.7760406841
2400,81008.1427661913
2401,142007.097601248
2402,165994.202363213
2403,176787.910160119
2404,182458.205693754
2405,195395.420998785
2406,171920.343607185
2407,165876.215747607
2408,173099.07784948
2409,154012.094642609
2410,218702.08437526
2411,143834.926115135
2412,185140.472490293
2413,158569.693032097
2414,176869.953218636
2415,170103.106309205
2416,167914.036570116
2417,163238.104569414
2418,158497.477720921
2419,158592.081211352
2420,154193.060200568
2421,168981.825603537
2422,131733.12439134
2423,147232.823902633
2424,192556.895860572
2425,254092.239109427
2426,166523.132143961
2427,158104.263487006
2428,225868.356790505
2429,144561.470086088
2430,175861.387132927
2431,144322.488068147
2432,182610.808026649
2433,177726.154858844
2434,176949.671659291
2435,193654.013218051
2436,146927.089497798
2437,131998.966605555
2438,146898.580684597
2439,141828.624935246
2440,166503.563915019
2441,144302.254949175
2442,135649.956595019
2443,162809.206276558
2444,157521.447132
2445,120522.907107648
2446,156968.91718574
2447,234035.735506434
2448,175362.647314606
2449,149059.224890278
2450,193782.46760821
2451,160425.859929125
2452,238907.00501644
2453,125633.430252412
2454,145109.084456937
2455,153841.752693995
2456,159757.120970665
2457,157290.848886092
2458,166550.889257728
2459,132108.746153948
2460,180989.67363243
2461,156392.662835156
2462,162638.144943074
2463,158102.110767331
2464,210427.172975335
2465,176655.075861893
2466,150003.420232956
2467,186947.571892639
2468,125437.127870169
2469,122079.951466061
2470,231667.089064609
2471,238867.914074767
2472,210960.740505629
2473,135792.747010124
2474,119647.758617841
2475,250295.658321978
2476,133756.377499604
2477,130011.391476419
2478,180531.467306674
2479,134446.958325786
2480,196461.865112998
2481,160505.425791678
2482,138949.509465709
2483,145874.15565369
2484,160893.652440015
2485,147070.175765184
2486,183963.027248325
2487,222255.861975827
2488,200027.591952929
2489,193351.606250458
2490,176155.1779091
2491,138872.43112332
2492,214004.209706439
2493,193226.583001672
2494,183498.919749849
2495,116956.857217552
2496,258755.33857176
2497,187103.379748673
2498,136440.805224827
2499,128336.298768042
2500,145919.423927556
2501,169462.910573369
2502,187240.198189734
2503,136300.133714599
2504,202271.259805105
2505,253158.005960458
2506,288741.982488003
2507,315652.746958106
2508,288721.616287915
2509,252600.375392865
2510,250695.57766219
2511,210943.76760126
2512,253095.603665797
2513,254033.093720581
2514,347066.232679255
2515,178636.450828876
2516,203962.445365927
2517,174596.692553933
2518,174519.124724027
2519,278403.855261482
2520,257560.193574394
2521,222151.683933631
2522,254012.280046175
2523,158375.926124396
2524,168339.124510896
2525,171644.918931715
2526,180973.839043731
2527,154977.397962504
2528,157504.379024912
2529,169069.404430068
2530,155196.562436233
2531,285980.867764996
2532,253126.448491483
2533,231818.343388582
2534,281487.615055836
2535,307549.023610116
2536,252939.95538677
2537,284366.1100458
2538,231268.498946846
2539,228731.161003585
2540,223198.420891684
2541,219104.294320095
2542,194677.479978541
2543,170166.886295064
2544,144180.290771646
2545,169149.375834347
2546,171459.554695625
2547,186714.646161978
2548,212103.935255189
2549,190388.48812725
2550,596634.300597389
2551,183369.102512104
2552,165842.103041375
2553,112001.126957588
2554,125748.063917398
2555,156903.592313943
2556,119382.953261893
2557,138486.660456822
2558,207853.257612739
2559,180131.580384644
2560,195462.452149233
2561,196541.623217402
2562,183494.21323692
2563,190998.806159906
2564,234569.566399915
2565,184271.540472893
2566,190456.174327226
2567,158335.879683349
2568,243231.033166946
2569,239080.09995561
2570,156175.70454316
2571,206259.707846284
2572,213828.609048814
2573,255831.240712685
2574,311486.393793703
2575,169707.009660451
2576,155989.881689013
2577,187123.148200768
2578,108450.731567982
2579,73390.371031863
2580,141790.089778228
2581,162919.567454748
2582,167867.597215192
2583,324912.295573406
2584,211421.482593114
2585,219007.602939799
2586,248897.3592956
2587,242473.940035968
2588,173899.768618006
2589,182293.945744423
2590,239483.877589816
2591,270207.176128675
2592,251964.967754022
2593,289971.43669334
2594,216478.054317882
2595,247799.449637602
2596,313644.80306159
2597,218923.38520324
2598,311654.791276957
2599,352604.394871851
2600,194370.14848857
2601,170662.229768232
2602,112529.641936694
2603,122305.260070614
2604,114161.533940888
2605,109027.156560204
2606,174031.259913707
2607,247909.295610081
2608,230010.815956015
2609,191376.284363655
2610,134553.8511509
2611,167765.424123279
2612,187673.971010921
2613,154980.545498313
2614,151410.269216563
2615,193054.917353712
2616,186543.572404182
2617,223279.372105342
2618,255304.701397392
2619,244368.134147119
2620,220497.139341435
2621,208058.11209346
2622,214145.293340477
2623,270145.666843401
2624,316320.743126183
2625,320067.780570833
2626,205920.805872173
2627,230567.053365122
2628,455702.836403472
2629,487379.106475703
2630,414574.971823819
2631,442669.733401472
2632,411959.166638996
2633,343759.547943878
2634,404965.469324892
2635,192976.751873044
2636,220423.712089805
2637,235770.449910393
2638,286403.521514503
2639,223483.63687648
2640,190678.107587063
2641,132107.750098043
2642,209776.381117267
2643,148905.397242831
2644,152135.129116884
2645,143831.239978908
2646,133910.791350601
2647,147263.137376152
2648,167964.668089204
2649,186939.07083227
2650,168717.015562761
2651,169949.222921811
2652,407118.725332656
2653,305737.488778988
2654,315294.85017092
2655,396168.462081751
2656,373156.304087996
2657,377735.563809334
2658,355598.773390799
2659,374732.261264996
2660,384312.373300989
2661,392360.681645167
2662,386984.379957107
2663,326314.497474791
2664,313287.670962013
2665,371932.47010724
2666,335072.664961059
2667,214871.513546095
2668,225884.079733165
2669,226471.51381471
2670,313508.908851097
2671,233898.332770011
2672,240704.747011096
2673,233316.232753009
2674,230179.932790258
2675,235665.552157352
2676,230047.266679429
2677,225139.254935962
2678,288759.481935386
2679,321899.189340532
2680,337795.21593654
2681,408331.134799505
2682,353294.791532894
2683,459789.624840448
2684,370009.413608615
2685,361450.720276138
2686,286954.406558031
2687,310707.838864267
2688,256167.956256609
2689,253974.178097782
2690,368196.661695292
2691,216597.466669965
2692,178138.428379487
2693,245097.326721242
2694,176088.973927621
2695,227959.436253887
2696,220519.600438139
2697,210782.2235961
2698,229632.106184371
2699,199226.42669306
2700,181853.336029275
2701,180073.464952672
2702,150056.362904889
2703,181536.820844795
2704,177832.097895977
2705,145498.309184885
2706,136869.031582633
2707,154135.548579493
2708,159737.008566807
2709,136066.673800521
2710,158806.937463862
2711,278215.512320243
2712,411196.150746914
2713,194326.248583986
2714,186084.084154273
2715,203004.26903734
2716,180250.19022654
2717,224953.869415584
2718,255909.862080325
2719,154194.09501117
2720,214978.349089547
2721,159441.955916937
2722,195318.531470925
2723,194709.761837563
2724,160415.014965255
2725,157830.765448583
2726,165816.60944077
2727,199785.854383931
2728,216250.653111355
2729,176469.004491202
2730,173729.996573869
2731,161947.058186373
2732,163517.136734179
2733,196124.963985726
2734,176127.813268629
2735,163582.406362151
2736,170993.857405485
2737,145395.777184721
2738,167956.518609682
2739,187921.336707215
2740,176692.095474744
2741,179942.455285354
2742,195304.454328152
2743,181580.123194925
2744,192242.008689668
2745,187258.941655379
2746,163314.802568974
2747,200640.088564105
2748,145441.715599774
2749,157249.41817632
2750,152598.152836974
2751,158570.753624612
2752,259890.388798807
2753,181808.567720318
2754,241246.692134274
2755,171323.116086864
2756,109915.240674498
2757,98247.7156665462
2758,120231.084202821
2759,193456.084572734
2760,163451.754648194
2761,176704.495241433
2762,176918.741221669
2763,224748.988401062
2764,207607.648204883
2765,307975.533658026
2766,148473.698214336
2767,119691.61712369
2768,158761.545117839
2769,171809.881634214
2770,186827.427285051
2771,134396.170371293
2772,116813.709915007
2773,214125.400435074
2774,174502.321680054
2775,163606.106720388
2776,184819.686003304
2777,192218.778399654
2778,160904.55240915
2779,154967.478923115
2780,145073.639643753
2781,117421.770143485
2782,113476.176144478
2783,117546.89017774
2784,142401.430607062
2785,170345.454093395
2786,84563.7103720735
2787,160787.134237202
2788,96782.4320768046
2789,219510.900225905
2790,126683.171680486
2791,146753.48112281
2792,95926.565848484
2793,188948.003713473
2794,118447.80903133
2795,150774.593854518
2796,125810.81430965
2797,228527.130672824
2798,154359.447095996
2799,158547.103700767
2800,104266.820721344
2801,146657.204670821
2802,157499.701251381
2803,201189.766661532
2804,179615.149603852
2805,143780.227151312
2806,118766.490739273
2807,204260.887837519
2808,186211.109709633
2809,162084.024087831
2810,159832.30910389
2811,194947.918785275
2812,221447.174537386
2813,188141.327307228
2814,194227.716942681
2815,142553.049500121
2816,247569.554756747
2817,173981.082306243
2818,153310.493435068
2819,210816.738546121
2820,163349.968689699
2821,155333.425219572
2822,226133.290582484
2823,327717.18930288
2824,204022.571089486
2825,196084.337032008
2826,166258.123686322
2827,177250.413844103
2828,263911.711815527
2829,237313.672852148
2830,265337.343993585
2831,223670.140490707
2832,274383.019295323
2833,328773.61862139
2834,272489.867043706
2835,265513.726549351
2836,233333.807701952
2837,201688.114306116
2838,169369.3629665
2839,201033.769423244
2840,239530.782672383
2841,235541.688167962
2842,256157.93601503
2843,190021.231833588
2844,212196.022476964
2845,150816.778923641
2846,241456.496877521
2847,244427.682966666
2848,243465.897660321
2849,234048.837314326
2850,303118.645669904
2851,243444.461712984
2852,261310.502914354
2853,263851.892236869
2854,177771.208050723
2855,234564.370919845
2856,249025.544181969
2857,226051.987845385
2858,257151.404187456
2859,141321.269094937
2860,181621.511164551
2861,164267.813497818
2862,228207.938728043
2863,168554.647213299
2864,263212.786997503
2865,201282.850133932
2866,194440.067892676
2867,126580.669825826
2868,154562.456819246
2869,130671.597533143
2870,166170.597153797
2871,122094.158429066
2872,48259.9770999052
2873,129128.880165467
2874,179588.031917254
2875,148670.665298038
2876,197829.326373393
2877,173592.34511167
2878,206396.578358477
2879,174682.201613987
2880,146893.755460115
2881,183889.293486105
2882,197560.971035119
2883,238847.30831371
2884,238981.61399167
2885,215269.851922765
2886,255187.896847013
2887,138733.59070026
2888,175987.486338466
2889,80410.5285926371
2890,106002.02773617
2891,180537.686492219
2892,75167.5036721468
2893,124969.570519873
2894,90004.1601202525
2895,347307.882184025
2896,309059.092796951
2897,252012.810109925
2898,195437.70158134
2899,244723.901031268
2900,197106.201749373
2901,245535.24579531
2902,224683.29647434
2903,332536.08834198
2904,359292.216267955
2905,100232.707830967
2906,257634.483443023
2907,151329.23151472
2908,156655.740937597
2909,185696.226115858
2910,96588.2287852766
2911,113511.227872788
2912,186795.807541757
2913,116053.477350169
2914,101608.86298559
2915,108744.988377644
2916,116616.536019554
2917,200705.880432408
2918,142422.088832623
2919,260763.136293432
