# Blender3D MTL File: 
# Material Count: 1
newmtl Material__52_Tex_0015_ACM_Xenomorph_diffuse
Ns 3.921569
Ka 0.000000 0.000000 0.000000
Kd 0.376320 0.376320 0.376320
Ks 0.000000 0.000000 0.000000
Ni 1.500000
d 0.000000
illum 2
map_Kd ACM_Xenomorph_diffuse.dds


